;HEADER
;Start_gcode
G21                     ; Set to metric [change to G20 if you want Imperial]
G90                     ; Force coordinates to be absolute relative to the origin
G28                     ; Home X/Y/Z axis
M117 Printing...
;ENDHEADER
;Layer #
G0 X165.33 Y449.77 Z90.00 F2524
M400
M280 P1 S0
G1 X165.33 Y449.77 Z15.00 F3000
G1 X170.42 Y444.58 Z15.00 F3000
G1 X173.27 Y442.11 Z15.00 F3000
G1 X176.74 Y439.39 Z15.00 F3000
G1 X180.82 Y436.54 Z15.00 F3000
G1 X185.53 Y433.65 Z15.00 F3000
G1 X190.84 Y430.83 Z15.00 F3000
G1 X196.76 Y428.20 Z15.00 F3000
G1 X203.28 Y425.87 Z15.00 F3000
G1 X210.41 Y423.94 Z15.00 F3000
G1 X218.12 Y422.51 Z15.00 F3000
G1 X226.43 Y421.71 Z15.00 F3000
G1 X235.33 Y421.64 Z15.00 F3000
G1 X240.00 Y421.91 Z15.00 F3000
G1 X244.81 Y422.40 Z15.00 F3000
G1 X249.67 Y423.18 Z15.00 F3000
G1 X254.46 Y424.27 Z15.00 F3000
G1 X259.17 Y425.65 Z15.00 F3000
G1 X263.81 Y427.30 Z15.00 F3000
G1 X268.37 Y429.19 Z15.00 F3000
G1 X272.83 Y431.31 Z15.00 F3000
G1 X277.20 Y433.64 Z15.00 F3000
G1 X281.47 Y436.15 Z15.00 F3000
G1 X289.68 Y441.61 Z15.00 F3000
G1 X297.41 Y447.53 Z15.00 F3000
G1 X304.63 Y453.73 Z15.00 F3000
G1 X311.28 Y460.03 Z15.00 F3000
G1 X317.32 Y466.26 Z15.00 F3000
G1 X322.70 Y472.23 Z15.00 F3000
G1 X331.32 Y482.70 Z15.00 F3000
G1 X338.65 Y492.78 Z15.00 F3000
G1 X326.92 Y497.77 Z15.00 F3000
G1 X313.63 Y502.74 Z15.00 F3000
G1 X305.53 Y505.48 Z15.00 F3000
G1 X296.62 Y508.25 Z15.00 F3000
G1 X287.00 Y510.95 Z15.00 F3000
G1 X276.79 Y513.46 Z15.00 F3000
G1 X266.11 Y515.68 Z15.00 F3000
G1 X255.07 Y517.52 Z15.00 F3000
G1 X243.78 Y518.85 Z15.00 F3000
G1 X232.37 Y519.59 Z15.00 F3000
G1 X220.94 Y519.62 Z15.00 F3000
G1 X215.25 Y519.34 Z15.00 F3000
G1 X209.60 Y518.84 Z15.00 F3000
G1 X198.75 Y517.32 Z15.00 F3000
G1 X188.65 Y515.25 Z15.00 F3000
G1 X179.27 Y512.67 Z15.00 F3000
G1 X170.61 Y509.67 Z15.00 F3000
G1 X162.63 Y506.27 Z15.00 F3000
G1 X155.34 Y502.56 Z15.00 F3000
G1 X148.70 Y498.58 Z15.00 F3000
G1 X142.70 Y494.39 Z15.00 F3000
G1 X137.33 Y490.04 Z15.00 F3000
G1 X132.57 Y485.61 Z15.00 F3000
G1 X128.40 Y481.13 Z15.00 F3000
G1 X124.80 Y476.67 Z15.00 F3000
G1 X121.76 Y472.29 Z15.00 F3000
G1 X119.26 Y468.04 Z15.00 F3000
G1 X117.28 Y463.98 Z15.00 F3000
G1 X115.81 Y460.17 Z15.00 F3000
G1 X113.03 Y450.91 Z15.00 F3000
G1 X109.68 Y438.09 Z15.00 F3000
G1 X105.94 Y422.23 Z15.00 F3000
G1 X101.97 Y403.80 Z15.00 F3000
G1 X97.93 Y383.29 Z15.00 F3000
G1 X94.00 Y361.20 Z15.00 F3000
G1 X90.35 Y338.01 Z15.00 F3000
G1 X87.15 Y314.21 Z15.00 F3000
G1 X85.52 Y302.32 Z15.00 F3000
G1 X83.62 Y290.60 Z15.00 F3000
G1 X81.51 Y279.14 Z15.00 F3000
G1 X79.23 Y267.98 Z15.00 F3000
G1 X74.44 Y246.85 Z15.00 F3000
G1 X69.72 Y227.72 Z15.00 F3000
G1 X65.56 Y211.09 Z15.00 F3000
G1 X62.41 Y197.47 Z15.00 F3000
G1 X61.37 Y191.94 Z15.00 F3000
G1 X60.76 Y187.36 Z15.00 F3000
G1 X60.65 Y183.78 Z15.00 F3000
G1 X61.08 Y181.26 Z15.00 F3000
G1 X61.99 Y179.27 Z15.00 F3000
G1 X63.24 Y177.22 Z15.00 F3000
G1 X64.87 Y175.14 Z15.00 F3000
G1 X66.89 Y173.06 Z15.00 F3000
G1 X69.31 Y171.03 Z15.00 F3000
G1 X72.15 Y169.06 Z15.00 F3000
G1 X75.43 Y167.20 Z15.00 F3000
G1 X79.17 Y165.47 Z15.00 F3000
G1 X83.38 Y163.91 Z15.00 F3000
G1 X88.08 Y162.55 Z15.00 F3000
G1 X93.29 Y161.42 Z15.00 F3000
G1 X99.03 Y160.55 Z15.00 F3000
G1 X105.30 Y159.99 Z15.00 F3000
G1 X112.14 Y159.75 Z15.00 F3000
G1 X119.55 Y159.88 Z15.00 F3000
G1 X127.56 Y160.41 Z15.00 F3000
G1 X135.29 Y161.34 Z15.00 F3000
G1 X141.90 Y162.66 Z15.00 F3000
G1 X147.47 Y164.30 Z15.00 F3000
G1 X152.08 Y166.23 Z15.00 F3000
G1 X155.81 Y168.38 Z15.00 F3000
G1 X158.72 Y170.71 Z15.00 F3000
G1 X160.90 Y173.17 Z15.00 F3000
G1 X162.43 Y175.71 Z15.00 F3000
G1 X163.37 Y178.29 Z15.00 F3000
G1 X163.81 Y180.84 Z15.00 F3000
G1 X163.82 Y183.32 Z15.00 F3000
G1 X163.48 Y185.69 Z15.00 F3000
G1 X162.87 Y187.89 Z15.00 F3000
G1 X162.05 Y189.87 Z15.00 F3000
G1 X161.11 Y191.58 Z15.00 F3000
G1 X160.13 Y192.97 Z15.00 F3000
G1 X159.01 Y194.12 Z15.00 F3000
G1 X157.65 Y195.09 Z15.00 F3000
G1 X156.08 Y195.88 Z15.00 F3000
G1 X154.32 Y196.46 Z15.00 F3000
G1 X152.40 Y196.80 Z15.00 F3000
G1 X150.35 Y196.88 Z15.00 F3000
G1 X148.20 Y196.68 Z15.00 F3000
G1 X145.98 Y196.17 Z15.00 F3000
G1 X143.71 Y195.34 Z15.00 F3000
G1 X141.43 Y194.16 Z15.00 F3000
G1 X139.16 Y192.60 Z15.00 F3000
G1 X136.94 Y190.65 Z15.00 F3000
G1 X134.78 Y188.27 Z15.00 F3000
G1 X132.73 Y185.46 Z15.00 F3000
G1 X130.80 Y182.18 Z15.00 F3000
G1 X129.03 Y178.41 Z15.00 F3000
G1 X126.23 Y170.93 Z15.00 F3000
G1 X124.42 Y164.43 Z15.00 F3000
G1 X123.42 Y158.71 Z15.00 F3000
G1 X123.00 Y153.51 Z15.00 F3000
G1 X123.24 Y133.46 Z15.00 F3000
G1 X122.93 Y129.16 Z15.00 F3000
G1 X122.42 Y125.12 Z15.00 F3000
G1 X121.09 Y118.08 Z15.00 F3000
G1 X119.00 Y110.09 Z15.00 F3000
G1 X119.05 Y109.49 Z15.00 F3000
G1 X119.41 Y109.07 Z15.00 F3000
G1 X119.94 Y108.92 Z15.00 F3000
G1 X120.51 Y109.12 Z15.00 F3000
G1 X127.48 Y114.10 Z15.00 F3000
G1 X132.21 Y117.00 Z15.00 F3000
G1 X137.49 Y119.74 Z15.00 F3000
G1 X143.10 Y122.02 Z15.00 F3000
G1 X145.96 Y122.89 Z15.00 F3000
G1 X148.83 Y123.52 Z15.00 F3000
G1 X151.67 Y123.88 Z15.00 F3000
G1 X154.47 Y123.93 Z15.00 F3000
G1 X157.18 Y123.63 Z15.00 F3000
G1 X159.79 Y122.93 Z15.00 F3000
G1 X163.08 Y121.62 Z15.00 F3000
G1 X166.66 Y119.92 Z15.00 F3000
G1 X174.55 Y115.61 Z15.00 F3000
G1 X191.74 Y105.08 Z15.00 F3000
G1 X200.23 Y99.85 Z15.00 F3000
G1 X208.11 Y95.30 Z15.00 F3000
G1 X214.96 Y91.92 Z15.00 F3000
G1 X217.88 Y90.82 Z15.00 F3000
G1 X220.39 Y90.20 Z15.00 F3000
G1 X222.53 Y89.98 Z15.00 F3000
G1 X224.37 Y90.06 Z15.00 F3000
G1 X225.93 Y90.39 Z15.00 F3000
G1 X227.22 Y90.95 Z15.00 F3000
G1 X228.26 Y91.71 Z15.00 F3000
G1 X229.06 Y92.63 Z15.00 F3000
G1 X229.63 Y93.68 Z15.00 F3000
G1 X229.98 Y94.83 Z15.00 F3000
G1 X230.10 Y97.31 Z15.00 F3000
G1 X229.53 Y99.82 Z15.00 F3000
G1 X228.37 Y102.09 Z15.00 F3000
G1 X226.73 Y103.88 Z15.00 F3000
G1 X225.68 Y104.55 Z15.00 F3000
G1 X224.38 Y105.10 Z15.00 F3000
G1 X221.04 Y105.77 Z15.00 F3000
G1 X216.68 Y105.80 Z15.00 F3000
G1 X211.33 Y105.10 Z15.00 F3000
G1 X204.96 Y103.57 Z15.00 F3000
G1 X197.59 Y101.13 Z15.00 F3000
G1 X189.20 Y97.68 Z15.00 F3000
G1 X179.81 Y93.13 Z15.00 F3000
G1 X163.48 Y84.77 Z15.00 F3000
G1 X157.38 Y81.89 Z15.00 F3000
G1 X152.19 Y79.76 Z15.00 F3000
G1 X147.56 Y78.29 Z15.00 F3000
G1 X143.11 Y77.40 Z15.00 F3000
G1 X138.51 Y77.00 Z15.00 F3000
G1 X133.39 Y77.02 Z15.00 F3000
G1 X130.66 Y77.30 Z15.00 F3000
G1 X127.93 Y77.94 Z15.00 F3000
G1 X125.21 Y78.87 Z15.00 F3000
G1 X122.49 Y80.06 Z15.00 F3000
G1 X116.99 Y82.96 Z15.00 F3000
G1 X111.35 Y86.25 Z15.00 F3000
G1 X105.50 Y89.52 Z15.00 F3000
G1 X99.38 Y92.35 Z15.00 F3000
G1 X96.18 Y93.48 Z15.00 F3000
G1 X92.89 Y94.35 Z15.00 F3000
G1 X89.49 Y94.91 Z15.00 F3000
G1 X85.97 Y95.11 Z15.00 F3000
G1 X79.11 Y94.77 Z15.00 F3000
G1 X72.82 Y93.89 Z15.00 F3000
G1 X67.09 Y92.64 Z15.00 F3000
G1 X61.89 Y91.20 Z15.00 F3000
G1 X52.97 Y88.52 Z15.00 F3000
G1 X49.22 Y87.64 Z15.00 F3000
G1 X45.89 Y87.30 Z15.00 F3000
G1 X44.38 Y87.43 Z15.00 F3000
G1 X42.95 Y87.81 Z15.00 F3000
G1 X41.63 Y88.39 Z15.00 F3000
G1 X40.41 Y89.15 Z15.00 F3000
G1 X38.35 Y91.07 Z15.00 F3000
G1 X36.86 Y93.30 Z15.00 F3000
G1 X36.00 Y95.57 Z15.00 F3000
G1 X35.87 Y97.62 Z15.00 F3000
G1 X36.10 Y98.48 Z15.00 F3000
G1 X36.54 Y99.19 Z15.00 F3000
G1 X37.20 Y99.71 Z15.00 F3000
G1 X38.09 Y100.02 Z15.00 F3000
G1 X39.16 Y100.05 Z15.00 F3000
G1 X40.37 Y99.79 Z15.00 F3000
G1 X43.14 Y98.45 Z15.00 F3000
G1 X46.35 Y96.04 Z15.00 F3000
G1 X49.94 Y92.62 Z15.00 F3000
G1 X53.84 Y88.27 Z15.00 F3000
G1 X58.02 Y83.05 Z15.00 F3000
G1 X62.39 Y77.01 Z15.00 F3000
G1 X66.92 Y70.22 Z15.00 F3000
G1 X75.27 Y57.67 Z15.00 F3000
G1 X79.06 Y52.70 Z15.00 F3000
G1 X82.80 Y48.60 Z15.00 F3000
G1 X86.63 Y45.36 Z15.00 F3000
G1 X88.62 Y44.07 Z15.00 F3000
G1 X90.70 Y43.00 Z15.00 F3000
G1 X92.87 Y42.15 Z15.00 F3000
G1 X95.16 Y41.51 Z15.00 F3000
G1 X97.58 Y41.09 Z15.00 F3000
G1 X100.16 Y40.88 Z15.00 F3000
G1 X114.43 Y40.18 Z15.00 F3000
G1 X123.53 Y39.82 Z15.00 F3000
G1 X133.27 Y39.66 Z15.00 F3000
G1 X143.15 Y39.88 Z15.00 F3000
G1 X152.66 Y40.62 Z15.00 F3000
G1 X157.12 Y41.24 Z15.00 F3000
G1 X161.30 Y42.05 Z15.00 F3000
G1 X165.13 Y43.07 Z15.00 F3000
G1 X168.56 Y44.33 Z15.00 F3000
G1 X171.72 Y45.83 Z15.00 F3000
G1 X174.79 Y47.55 Z15.00 F3000
G1 X180.58 Y51.47 Z15.00 F3000
G1 X185.81 Y55.75 Z15.00 F3000
G1 X190.37 Y60.03 Z15.00 F3000
G1 X194.12 Y63.96 Z15.00 F3000
G1 X196.95 Y67.21 Z15.00 F3000
G1 X199.36 Y70.22 Z15.00 F3000
G0 X199.36 Y70.22 Z90.00 F2524
G0 X212.58 Y391.77 Z90.00 F2524
G1 X212.58 Y391.77 Z15.00 F3000
G1 X212.58 Y423.45 Z15.00 F3000
G0 X212.58 Y423.45 Z90.00 F2524
G0 X284.94 Y396.30 Z90.00 F2524
G1 X284.94 Y396.30 Z15.00 F3000
G1 X281.49 Y399.19 Z15.00 F3000
G1 X277.93 Y402.43 Z15.00 F3000
G1 X273.78 Y406.51 Z15.00 F3000
G1 X269.54 Y411.20 Z15.00 F3000
G1 X265.69 Y416.22 Z15.00 F3000
G1 X264.07 Y418.78 Z15.00 F3000
G1 X262.73 Y421.33 Z15.00 F3000
G1 X261.73 Y423.83 Z15.00 F3000
G1 X261.14 Y426.27 Z15.00 F3000
G0 X261.14 Y426.27 Z90.00 F2524
G0 X359.89 Y447.16 Z90.00 F2524
G1 X359.89 Y447.16 Z15.00 F3000
G1 X355.64 Y445.68 Z15.00 F3000
G1 X350.75 Y444.64 Z15.00 F3000
G1 X347.73 Y444.28 Z15.00 F3000
G1 X344.38 Y444.13 Z15.00 F3000
G1 X340.73 Y444.24 Z15.00 F3000
G1 X336.81 Y444.70 Z15.00 F3000
G1 X332.65 Y445.56 Z15.00 F3000
G1 X328.30 Y446.90 Z15.00 F3000
G1 X323.79 Y448.78 Z15.00 F3000
G1 X319.15 Y451.27 Z15.00 F3000
G1 X314.41 Y454.45 Z15.00 F3000
G1 X309.61 Y458.37 Z15.00 F3000
G0 X309.61 Y458.37 Z90.00 F2524
M400
M280 P1 S90
;FOOTER
; end_gcode
G28 X Y
G0 Z100 				; HOME
G90                             ; absolute positioning
;ENDFOOTER
