(kicad_pcb (version 20171130) (host pcbnew "(5.1.5-0-10_14)")

  (general
    (thickness 1.6)
    (drawings 4)
    (tracks 262)
    (zones 0)
    (modules 20)
    (nets 45)
  )

  (page A4)
  (layers
    (0 F.Cu signal)
    (31 B.Cu signal)
    (32 B.Adhes user)
    (33 F.Adhes user)
    (34 B.Paste user)
    (35 F.Paste user)
    (36 B.SilkS user)
    (37 F.SilkS user)
    (38 B.Mask user)
    (39 F.Mask user)
    (40 Dwgs.User user)
    (41 Cmts.User user)
    (42 Eco1.User user)
    (43 Eco2.User user)
    (44 Edge.Cuts user)
    (45 Margin user)
    (46 B.CrtYd user)
    (47 F.CrtYd user)
    (48 B.Fab user)
    (49 F.Fab user)
  )

  (setup
    (last_trace_width 0.4)
    (trace_clearance 0.4)
    (zone_clearance 0.508)
    (zone_45_only no)
    (trace_min 0.2)
    (via_size 0.6)
    (via_drill 0.4)
    (via_min_size 0.4)
    (via_min_drill 0.3)
    (uvia_size 0.3)
    (uvia_drill 0.1)
    (uvias_allowed no)
    (uvia_min_size 0.2)
    (uvia_min_drill 0.1)
    (edge_width 0.05)
    (segment_width 0.2)
    (pcb_text_width 0.3)
    (pcb_text_size 1.5 1.5)
    (mod_edge_width 0.12)
    (mod_text_size 1 1)
    (mod_text_width 0.15)
    (pad_size 1.524 1.524)
    (pad_drill 0.762)
    (pad_to_mask_clearance 0.051)
    (solder_mask_min_width 0.25)
    (aux_axis_origin 0 0)
    (visible_elements FFFFFF7F)
    (pcbplotparams
      (layerselection 0x010fc_ffffffff)
      (usegerberextensions false)
      (usegerberattributes false)
      (usegerberadvancedattributes false)
      (creategerberjobfile false)
      (excludeedgelayer true)
      (linewidth 0.100000)
      (plotframeref false)
      (viasonmask false)
      (mode 1)
      (useauxorigin false)
      (hpglpennumber 1)
      (hpglpenspeed 20)
      (hpglpendiameter 15.000000)
      (psnegative false)
      (psa4output false)
      (plotreference true)
      (plotvalue true)
      (plotinvisibletext false)
      (padsonsilk false)
      (subtractmaskfromsilk false)
      (outputformat 1)
      (mirror false)
      (drillshape 1)
      (scaleselection 1)
      (outputdirectory ""))
  )

  (net 0 "")
  (net 1 3V3)
  (net 2 GND)
  (net 3 "Net-(M1-Pad2)")
  (net 4 "Net-(M1-Pad6)")
  (net 5 "Net-(J1-Pad3)")
  (net 6 "Net-(J1-Pad4)")
  (net 7 "Net-(J1-Pad9)")
  (net 8 "Net-(J1-Pad10)")
  (net 9 "Net-(J1-Pad11)")
  (net 10 "Net-(J2-Pad9)")
  (net 11 "Net-(J2-Pad8)")
  (net 12 "Net-(J2-Pad7)")
  (net 13 "Net-(J2-Pad6)")
  (net 14 "Net-(J2-Pad5)")
  (net 15 "Net-(J2-Pad4)")
  (net 16 "Net-(J2-Pad3)")
  (net 17 "Net-(J2-Pad2)")
  (net 18 "Net-(J2-Pad1)")
  (net 19 "Net-(M2-Pad1)")
  (net 20 "Net-(C1-Pad1)")
  (net 21 TX)
  (net 22 RX)
  (net 23 "Net-(M3-Pad2)")
  (net 24 "Net-(M4-Pad2)")
  (net 25 I014)
  (net 26 RESET)
  (net 27 PROG)
  (net 28 "Net-(J1-Pad1)")
  (net 29 "Net-(J1-Pad2)")
  (net 30 "Net-(J1-Pad5)")
  (net 31 "Net-(J1-Pad6)")
  (net 32 "Net-(J1-Pad7)")
  (net 33 "Net-(J1-Pad8)")
  (net 34 "Net-(J3-Pad13)")
  (net 35 "Net-(J3-Pad12)")
  (net 36 "Net-(J3-Pad11)")
  (net 37 "Net-(J3-Pad10)")
  (net 38 "Net-(J3-Pad9)")
  (net 39 "Net-(J3-Pad8)")
  (net 40 "Net-(J3-Pad7)")
  (net 41 "Net-(J3-Pad4)")
  (net 42 "Net-(J3-Pad3)")
  (net 43 "Net-(U1-Pad32)")
  (net 44 "Net-(S2-Pad3)")

  (net_class Default "This is the default net class."
    (clearance 0.4)
    (trace_width 0.4)
    (via_dia 0.6)
    (via_drill 0.4)
    (uvia_dia 0.3)
    (uvia_drill 0.1)
    (add_net 3V3)
    (add_net GND)
    (add_net I014)
    (add_net "Net-(C1-Pad1)")
    (add_net "Net-(J1-Pad1)")
    (add_net "Net-(J1-Pad10)")
    (add_net "Net-(J1-Pad11)")
    (add_net "Net-(J1-Pad2)")
    (add_net "Net-(J1-Pad3)")
    (add_net "Net-(J1-Pad4)")
    (add_net "Net-(J1-Pad5)")
    (add_net "Net-(J1-Pad6)")
    (add_net "Net-(J1-Pad7)")
    (add_net "Net-(J1-Pad8)")
    (add_net "Net-(J1-Pad9)")
    (add_net "Net-(J2-Pad1)")
    (add_net "Net-(J2-Pad2)")
    (add_net "Net-(J2-Pad3)")
    (add_net "Net-(J2-Pad4)")
    (add_net "Net-(J2-Pad5)")
    (add_net "Net-(J2-Pad6)")
    (add_net "Net-(J2-Pad7)")
    (add_net "Net-(J2-Pad8)")
    (add_net "Net-(J2-Pad9)")
    (add_net "Net-(J3-Pad10)")
    (add_net "Net-(J3-Pad11)")
    (add_net "Net-(J3-Pad12)")
    (add_net "Net-(J3-Pad13)")
    (add_net "Net-(J3-Pad3)")
    (add_net "Net-(J3-Pad4)")
    (add_net "Net-(J3-Pad7)")
    (add_net "Net-(J3-Pad8)")
    (add_net "Net-(J3-Pad9)")
    (add_net "Net-(M1-Pad2)")
    (add_net "Net-(M1-Pad6)")
    (add_net "Net-(M2-Pad1)")
    (add_net "Net-(M3-Pad2)")
    (add_net "Net-(M4-Pad2)")
    (add_net "Net-(S2-Pad3)")
    (add_net "Net-(U1-Pad32)")
    (add_net PROG)
    (add_net RESET)
    (add_net RX)
    (add_net TX)
  )

  (module Package_TO_SOT_SMD:SOT-223-3_TabPin2 (layer F.Cu) (tedit 5A02FF57) (tstamp 5E68FF56)
    (at 138.43 93.98 180)
    (descr "module CMS SOT223 4 pins")
    (tags "CMS SOT")
    (path /5E9D733C)
    (attr smd)
    (fp_text reference U2 (at 0 -4.5) (layer F.SilkS)
      (effects (font (size 1 1) (thickness 0.15)))
    )
    (fp_text value AP1117-15 (at 0 4.5) (layer F.Fab)
      (effects (font (size 1 1) (thickness 0.15)))
    )
    (fp_text user %R (at 0 -5.08 90) (layer F.Fab)
      (effects (font (size 0.8 0.8) (thickness 0.12)))
    )
    (fp_line (start 1.91 3.41) (end 1.91 2.15) (layer F.SilkS) (width 0.12))
    (fp_line (start 1.91 -3.41) (end 1.91 -2.15) (layer F.SilkS) (width 0.12))
    (fp_line (start 4.4 -3.6) (end -4.4 -3.6) (layer F.CrtYd) (width 0.05))
    (fp_line (start 4.4 3.6) (end 4.4 -3.6) (layer F.CrtYd) (width 0.05))
    (fp_line (start -4.4 3.6) (end 4.4 3.6) (layer F.CrtYd) (width 0.05))
    (fp_line (start -4.4 -3.6) (end -4.4 3.6) (layer F.CrtYd) (width 0.05))
    (fp_line (start -1.85 -2.35) (end -0.85 -3.35) (layer F.Fab) (width 0.1))
    (fp_line (start -1.85 -2.35) (end -1.85 3.35) (layer F.Fab) (width 0.1))
    (fp_line (start -1.85 3.41) (end 1.91 3.41) (layer F.SilkS) (width 0.12))
    (fp_line (start -0.85 -3.35) (end 1.85 -3.35) (layer F.Fab) (width 0.1))
    (fp_line (start -4.1 -3.41) (end 1.91 -3.41) (layer F.SilkS) (width 0.12))
    (fp_line (start -1.85 3.35) (end 1.85 3.35) (layer F.Fab) (width 0.1))
    (fp_line (start 1.85 -3.35) (end 1.85 3.35) (layer F.Fab) (width 0.1))
    (pad 2 smd rect (at 3.15 0 180) (size 2 3.8) (layers F.Cu F.Paste F.Mask)
      (net 1 3V3))
    (pad 2 smd rect (at -3.15 0 180) (size 2 1.5) (layers F.Cu F.Paste F.Mask)
      (net 1 3V3))
    (pad 3 smd rect (at -3.15 2.3 180) (size 2 1.5) (layers F.Cu F.Paste F.Mask)
      (net 20 "Net-(C1-Pad1)"))
    (pad 1 smd rect (at -3.15 -2.3 180) (size 2 1.5) (layers F.Cu F.Paste F.Mask)
      (net 2 GND))
    (model ${KISYS3DMOD}/Package_TO_SOT_SMD.3dshapes/SOT-223.wrl
      (at (xyz 0 0 0))
      (scale (xyz 1 1 1))
      (rotate (xyz 0 0 0))
    )
  )

  (module fab-C1206FAB (layer F.Cu) (tedit 200000) (tstamp 5E68FE92)
    (at 139.7 82.55 180)
    (path /5EAA0E86)
    (attr smd)
    (fp_text reference C1 (at 0.762 -1.778) (layer F.SilkS)
      (effects (font (size 1.016 1.016) (thickness 0.1524)))
    )
    (fp_text value CAP-UNPOLARIZEDFAB (at 1.27 1.778 270) (layer F.SilkS)
      (effects (font (size 1.016 1.016) (thickness 0.1524)))
    )
    (fp_line (start -2.032 -1.016) (end 2.032 -1.016) (layer B.SilkS) (width 0.127))
    (fp_line (start 2.032 -1.016) (end 2.032 1.016) (layer B.SilkS) (width 0.127))
    (fp_line (start 2.032 1.016) (end -2.032 1.016) (layer B.SilkS) (width 0.127))
    (fp_line (start -2.032 1.016) (end -2.032 -1.016) (layer B.SilkS) (width 0.127))
    (pad 1 smd rect (at -1.651 0 180) (size 1.27 1.905) (layers F.Cu F.Paste F.Mask)
      (net 20 "Net-(C1-Pad1)"))
    (pad 2 smd rect (at 1.651 0 180) (size 1.27 1.905) (layers F.Cu F.Paste F.Mask)
      (net 2 GND))
  )

  (module ESP32-footprints-Lib:ESP32-WROOM_FAB (layer F.Cu) (tedit 5E60E014) (tstamp 5E689CDD)
    (at 128.27 111.76 180)
    (path /5E60FCC9)
    (fp_text reference U1 (at -11.557 9.017) (layer F.SilkS)
      (effects (font (size 1 1) (thickness 0.15)))
    )
    (fp_text value ESP32-WROOM (at 5.715 14.224) (layer F.Fab)
      (effects (font (size 1 1) (thickness 0.15)))
    )
    (fp_line (start -9 12.75) (end 9 12.75) (layer F.SilkS) (width 0.15))
    (fp_line (start -9 -12.75) (end 9 -12.75) (layer F.SilkS) (width 0.15))
    (fp_line (start -9 12.75) (end -9 -12.75) (layer F.SilkS) (width 0.15))
    (fp_line (start 9 12.75) (end 9 -12.75) (layer F.SilkS) (width 0.15))
    (fp_line (start -9 6.75) (end 9 6.75) (layer F.SilkS) (width 0.15))
    (fp_text user ESP32-WROOM (at -5.207 0.254 90) (layer F.SilkS)
      (effects (font (size 1 1) (thickness 0.15)))
    )
    (fp_circle (center 9.906 6.604) (end 10.033 6.858) (layer F.SilkS) (width 0.5))
    (fp_text user "Espressif Systems" (at -6.858 -0.889 90) (layer F.SilkS)
      (effects (font (size 1 1) (thickness 0.15)))
    )
    (pad 39 smd rect (at 0.3 -2.45 180) (size 6 6) (layers F.Cu F.Paste F.Mask)
      (net 2 GND))
    (pad 1 smd rect (at 9 5.25 180) (size 2.5 0.7) (layers F.Cu F.Paste F.Mask)
      (net 2 GND))
    (pad 2 smd rect (at 9 3.98 180) (size 2.5 0.7) (layers F.Cu F.Paste F.Mask)
      (net 1 3V3))
    (pad 3 smd rect (at 9 2.71 180) (size 2.5 0.7) (layers F.Cu F.Paste F.Mask)
      (net 26 RESET))
    (pad 4 smd rect (at 9 1.44 180) (size 2.5 0.7) (layers F.Cu F.Paste F.Mask)
      (net 28 "Net-(J1-Pad1)"))
    (pad 5 smd rect (at 9 0.17 180) (size 2.5 0.7) (layers F.Cu F.Paste F.Mask)
      (net 29 "Net-(J1-Pad2)"))
    (pad 6 smd rect (at 9 -1.1 180) (size 2.5 0.7) (layers F.Cu F.Paste F.Mask)
      (net 5 "Net-(J1-Pad3)"))
    (pad 7 smd rect (at 9 -2.37 180) (size 2.5 0.7) (layers F.Cu F.Paste F.Mask)
      (net 6 "Net-(J1-Pad4)"))
    (pad 8 smd rect (at 9 -3.64 180) (size 2.5 0.7) (layers F.Cu F.Paste F.Mask)
      (net 30 "Net-(J1-Pad5)"))
    (pad 9 smd rect (at 9 -4.91 180) (size 2.5 0.7) (layers F.Cu F.Paste F.Mask)
      (net 31 "Net-(J1-Pad6)"))
    (pad 10 smd rect (at 9 -6.18 180) (size 2.5 0.7) (layers F.Cu F.Paste F.Mask)
      (net 32 "Net-(J1-Pad7)"))
    (pad 11 smd rect (at 9 -7.45 180) (size 2.5 0.7) (layers F.Cu F.Paste F.Mask)
      (net 33 "Net-(J1-Pad8)"))
    (pad 12 smd rect (at 9 -8.72 180) (size 2.5 0.7) (layers F.Cu F.Paste F.Mask)
      (net 7 "Net-(J1-Pad9)"))
    (pad 13 smd rect (at 9 -9.99 180) (size 2.5 0.7) (layers F.Cu F.Paste F.Mask)
      (net 8 "Net-(J1-Pad10)"))
    (pad 14 smd rect (at 9 -11.26 180) (size 2.5 0.7) (layers F.Cu F.Paste F.Mask)
      (net 9 "Net-(J1-Pad11)"))
    (pad 15 smd rect (at 5.715 -12.75 180) (size 0.7 2.5) (layers F.Cu F.Paste F.Mask)
      (net 2 GND))
    (pad 16 smd rect (at 4.445 -12.75 180) (size 0.7 2.5) (layers F.Cu F.Paste F.Mask)
      (net 10 "Net-(J2-Pad9)"))
    (pad 17 smd rect (at 3.175 -12.75 180) (size 0.7 2.5) (layers F.Cu F.Paste F.Mask)
      (net 11 "Net-(J2-Pad8)"))
    (pad 18 smd rect (at 1.905 -12.75 180) (size 0.7 2.5) (layers F.Cu F.Paste F.Mask)
      (net 12 "Net-(J2-Pad7)"))
    (pad 19 smd rect (at 0.635 -12.75 180) (size 0.7 2.5) (layers F.Cu F.Paste F.Mask)
      (net 13 "Net-(J2-Pad6)"))
    (pad 20 smd rect (at -0.635 -12.75 180) (size 0.7 2.5) (layers F.Cu F.Paste F.Mask)
      (net 14 "Net-(J2-Pad5)"))
    (pad 21 smd rect (at -1.905 -12.75 180) (size 0.7 2.5) (layers F.Cu F.Paste F.Mask)
      (net 15 "Net-(J2-Pad4)"))
    (pad 22 smd rect (at -3.175 -12.75 180) (size 0.7 2.5) (layers F.Cu F.Paste F.Mask)
      (net 16 "Net-(J2-Pad3)"))
    (pad 23 smd rect (at -4.445 -12.75 180) (size 0.7 2.5) (layers F.Cu F.Paste F.Mask)
      (net 17 "Net-(J2-Pad2)"))
    (pad 24 smd rect (at -5.715 -12.75 180) (size 0.7 2.5) (layers F.Cu F.Paste F.Mask)
      (net 18 "Net-(J2-Pad1)"))
    (pad 25 smd rect (at -9 -11.26 180) (size 2.5 0.7) (layers F.Cu F.Paste F.Mask)
      (net 27 PROG))
    (pad 26 smd rect (at -9 -9.99 180) (size 2.5 0.7) (layers F.Cu F.Paste F.Mask)
      (net 34 "Net-(J3-Pad13)"))
    (pad 27 smd rect (at -9 -8.72 180) (size 2.5 0.7) (layers F.Cu F.Paste F.Mask)
      (net 35 "Net-(J3-Pad12)"))
    (pad 28 smd rect (at -9 -7.45 180) (size 2.5 0.7) (layers F.Cu F.Paste F.Mask)
      (net 36 "Net-(J3-Pad11)"))
    (pad 29 smd rect (at -9 -6.18 180) (size 2.5 0.7) (layers F.Cu F.Paste F.Mask)
      (net 37 "Net-(J3-Pad10)"))
    (pad 30 smd rect (at -9 -4.91 180) (size 2.5 0.7) (layers F.Cu F.Paste F.Mask)
      (net 38 "Net-(J3-Pad9)"))
    (pad 31 smd rect (at -9 -3.64 180) (size 2.5 0.7) (layers F.Cu F.Paste F.Mask)
      (net 39 "Net-(J3-Pad8)"))
    (pad 32 smd rect (at -9 -2.37 180) (size 2.5 0.7) (layers F.Cu F.Paste F.Mask)
      (net 43 "Net-(U1-Pad32)"))
    (pad 33 smd rect (at -9 -1.1 180) (size 2.5 0.7) (layers F.Cu F.Paste F.Mask)
      (net 40 "Net-(J3-Pad7)"))
    (pad 34 smd rect (at -9 0.17 180) (size 2.5 0.7) (layers F.Cu F.Paste F.Mask)
      (net 21 TX))
    (pad 35 smd rect (at -9 1.44 180) (size 2.5 0.7) (layers F.Cu F.Paste F.Mask)
      (net 22 RX))
    (pad 36 smd rect (at -9 2.71 180) (size 2.5 0.7) (layers F.Cu F.Paste F.Mask)
      (net 41 "Net-(J3-Pad4)"))
    (pad 37 smd rect (at -9 3.98 180) (size 2.5 0.7) (layers F.Cu F.Paste F.Mask)
      (net 42 "Net-(J3-Pad3)"))
    (pad 38 smd rect (at -9 5.25 180) (size 2.5 0.7) (layers F.Cu F.Paste F.Mask)
      (net 2 GND))
  )

  (module fab-R1206FAB (layer F.Cu) (tedit 200000) (tstamp 5E689C2E)
    (at 114.3 101.6 180)
    (path /5E7B963D)
    (attr smd)
    (fp_text reference R5 (at 0.762 -1.778) (layer F.SilkS)
      (effects (font (size 1.016 1.016) (thickness 0.1524)))
    )
    (fp_text value RES-US1206FAB (at 1.27 1.778) (layer F.SilkS)
      (effects (font (size 1.016 1.016) (thickness 0.1524)))
    )
    (fp_line (start -2.032 -1.016) (end 2.032 -1.016) (layer B.SilkS) (width 0.127))
    (fp_line (start 2.032 -1.016) (end 2.032 1.016) (layer B.SilkS) (width 0.127))
    (fp_line (start 2.032 1.016) (end -2.032 1.016) (layer B.SilkS) (width 0.127))
    (fp_line (start -2.032 1.016) (end -2.032 -1.016) (layer B.SilkS) (width 0.127))
    (pad 1 smd rect (at -1.651 0 180) (size 1.27 1.905) (layers F.Cu F.Paste F.Mask)
      (net 1 3V3))
    (pad 2 smd rect (at 1.651 0 180) (size 1.27 1.905) (layers F.Cu F.Paste F.Mask)
      (net 26 RESET))
  )

  (module fab-6MM_SWITCH (layer F.Cu) (tedit 200000) (tstamp 5E689CAA)
    (at 119.38 86.36 180)
    (descr "OMRON SWITCH")
    (tags "OMRON SWITCH")
    (path /5E77932A)
    (attr smd)
    (fp_text reference S1 (at 0.127 -4.318) (layer F.SilkS)
      (effects (font (size 1.27 1.27) (thickness 0.127)))
    )
    (fp_text value 6MM_SWITCH6MM_SWITCH (at 0.762 4.445) (layer F.SilkS)
      (effects (font (size 1.27 1.27) (thickness 0.127)))
    )
    (fp_line (start 3.302 0.762) (end 3.048 0.762) (layer B.SilkS) (width 0.1524))
    (fp_line (start 3.302 0.762) (end 3.302 -0.762) (layer B.SilkS) (width 0.1524))
    (fp_line (start 3.048 -0.762) (end 3.302 -0.762) (layer B.SilkS) (width 0.1524))
    (fp_line (start 3.048 -1.016) (end 3.048 -2.54) (layer F.SilkS) (width 0.1524))
    (fp_line (start -3.302 -0.762) (end -3.048 -0.762) (layer B.SilkS) (width 0.1524))
    (fp_line (start -3.302 -0.762) (end -3.302 0.762) (layer B.SilkS) (width 0.1524))
    (fp_line (start -3.048 0.762) (end -3.302 0.762) (layer B.SilkS) (width 0.1524))
    (fp_line (start 3.048 -2.54) (end 2.54 -3.048) (layer F.SilkS) (width 0.1524))
    (fp_line (start 2.54 3.048) (end 3.048 2.54) (layer F.SilkS) (width 0.1524))
    (fp_line (start 3.048 2.54) (end 3.048 1.016) (layer F.SilkS) (width 0.1524))
    (fp_line (start -2.54 -3.048) (end -3.048 -2.54) (layer F.SilkS) (width 0.1524))
    (fp_line (start -3.048 -2.54) (end -3.048 -1.016) (layer F.SilkS) (width 0.1524))
    (fp_line (start -2.54 3.048) (end -3.048 2.54) (layer F.SilkS) (width 0.1524))
    (fp_line (start -3.048 2.54) (end -3.048 1.016) (layer F.SilkS) (width 0.1524))
    (fp_line (start -1.27 -1.27) (end -1.27 1.27) (layer F.SilkS) (width 0.0508))
    (fp_line (start 1.27 1.27) (end -1.27 1.27) (layer F.SilkS) (width 0.0508))
    (fp_line (start 1.27 1.27) (end 1.27 -1.27) (layer F.SilkS) (width 0.0508))
    (fp_line (start -1.27 -1.27) (end 1.27 -1.27) (layer F.SilkS) (width 0.0508))
    (fp_line (start -1.27 -3.048) (end -1.27 -2.794) (layer B.SilkS) (width 0.0508))
    (fp_line (start 1.27 -2.794) (end -1.27 -2.794) (layer B.SilkS) (width 0.0508))
    (fp_line (start 1.27 -2.794) (end 1.27 -3.048) (layer B.SilkS) (width 0.0508))
    (fp_line (start 1.143 2.794) (end -1.27 2.794) (layer B.SilkS) (width 0.0508))
    (fp_line (start 1.143 2.794) (end 1.143 3.048) (layer B.SilkS) (width 0.0508))
    (fp_line (start -1.27 2.794) (end -1.27 3.048) (layer B.SilkS) (width 0.0508))
    (fp_line (start 2.54 3.048) (end 2.159 3.048) (layer F.SilkS) (width 0.1524))
    (fp_line (start -2.54 3.048) (end -2.159 3.048) (layer F.SilkS) (width 0.1524))
    (fp_line (start -2.159 3.048) (end -1.27 3.048) (layer B.SilkS) (width 0.1524))
    (fp_line (start -2.54 -3.048) (end -2.159 -3.048) (layer F.SilkS) (width 0.1524))
    (fp_line (start 2.54 -3.048) (end 2.159 -3.048) (layer F.SilkS) (width 0.1524))
    (fp_line (start 2.159 -3.048) (end 1.27 -3.048) (layer B.SilkS) (width 0.1524))
    (fp_line (start 1.27 -3.048) (end -1.27 -3.048) (layer B.SilkS) (width 0.1524))
    (fp_line (start -1.27 -3.048) (end -2.159 -3.048) (layer B.SilkS) (width 0.1524))
    (fp_line (start -1.27 3.048) (end 1.143 3.048) (layer B.SilkS) (width 0.1524))
    (fp_line (start 1.143 3.048) (end 2.159 3.048) (layer B.SilkS) (width 0.1524))
    (fp_line (start 3.048 0.762) (end 3.048 1.016) (layer B.SilkS) (width 0.1524))
    (fp_line (start 3.048 -0.762) (end 3.048 -1.016) (layer B.SilkS) (width 0.1524))
    (fp_line (start -3.048 0.762) (end -3.048 1.016) (layer B.SilkS) (width 0.1524))
    (fp_line (start -3.048 -0.762) (end -3.048 -1.016) (layer B.SilkS) (width 0.1524))
    (fp_line (start -1.27 2.159) (end 1.27 2.159) (layer F.SilkS) (width 0.1524))
    (fp_line (start 1.27 -2.286) (end -1.27 -2.286) (layer F.SilkS) (width 0.1524))
    (fp_line (start -2.413 -1.27) (end -2.413 -0.508) (layer F.SilkS) (width 0.1524))
    (fp_line (start -2.413 0.508) (end -2.413 1.27) (layer F.SilkS) (width 0.1524))
    (fp_line (start -2.413 -0.508) (end -2.159 0.381) (layer F.SilkS) (width 0.1524))
    (fp_circle (center 0 0) (end -0.889 0.889) (layer B.SilkS) (width 0.0762))
    (fp_circle (center -2.159 2.159) (end -2.413 2.413) (layer F.SilkS) (width 0.0762))
    (fp_circle (center 2.159 2.032) (end 2.413 2.286) (layer F.SilkS) (width 0.0762))
    (fp_circle (center 2.159 -2.159) (end 2.413 -2.413) (layer F.SilkS) (width 0.0762))
    (fp_circle (center -2.159 -2.159) (end -2.413 -2.413) (layer F.SilkS) (width 0.0762))
    (fp_circle (center 0 0) (end -0.3175 0.3175) (layer F.SilkS) (width 0.0254))
    (fp_circle (center 0 0) (end -0.127 0.127) (layer B.SilkS) (width 0.0762))
    (fp_text user 1 (at -3.683 -2.286) (layer B.SilkS)
      (effects (font (size 1.27 1.27) (thickness 0.127)))
    )
    (fp_text user 2 (at 4.191 -2.159) (layer B.SilkS)
      (effects (font (size 1.27 1.27) (thickness 0.127)))
    )
    (fp_text user 3 (at -3.937 2.159) (layer B.SilkS)
      (effects (font (size 1.27 1.27) (thickness 0.127)))
    )
    (fp_text user 4 (at 4.191 2.159) (layer B.SilkS)
      (effects (font (size 1.27 1.27) (thickness 0.127)))
    )
    (pad 1 smd rect (at -3.302 -2.286 180) (size 2.286 1.524) (layers F.Cu F.Paste F.Mask)
      (net 26 RESET))
    (pad 2 smd rect (at 3.302 -2.286 180) (size 2.286 1.524) (layers F.Cu F.Paste F.Mask)
      (net 26 RESET))
    (pad 3 smd rect (at -3.302 2.286 180) (size 2.286 1.524) (layers F.Cu F.Paste F.Mask)
      (net 2 GND))
    (pad 4 smd rect (at 3.302 2.286 180) (size 2.286 1.524) (layers F.Cu F.Paste F.Mask)
      (net 2 GND))
  )

  (module fab-R1206FAB (layer F.Cu) (tedit 200000) (tstamp 5E68FEE2)
    (at 142.24 125.73)
    (path /5EBAD906)
    (attr smd)
    (fp_text reference R3 (at 0.762 -1.778) (layer F.SilkS)
      (effects (font (size 1.016 1.016) (thickness 0.1524)))
    )
    (fp_text value RES-US1206FAB (at 1.27 1.778) (layer F.SilkS)
      (effects (font (size 1.016 1.016) (thickness 0.1524)))
    )
    (fp_line (start -2.032 -1.016) (end 2.032 -1.016) (layer B.SilkS) (width 0.127))
    (fp_line (start 2.032 -1.016) (end 2.032 1.016) (layer B.SilkS) (width 0.127))
    (fp_line (start 2.032 1.016) (end -2.032 1.016) (layer B.SilkS) (width 0.127))
    (fp_line (start -2.032 1.016) (end -2.032 -1.016) (layer B.SilkS) (width 0.127))
    (pad 1 smd rect (at -1.651 0) (size 1.27 1.905) (layers F.Cu F.Paste F.Mask)
      (net 24 "Net-(M4-Pad2)"))
    (pad 2 smd rect (at 1.651 0) (size 1.27 1.905) (layers F.Cu F.Paste F.Mask)
      (net 2 GND))
  )

  (module fab-1X06SMD (layer F.Cu) (tedit 200000) (tstamp 5E689BFC)
    (at 142.24 86.36 90)
    (path /5E613C8D)
    (attr smd)
    (fp_text reference M1 (at -2.54 0) (layer F.SilkS)
      (effects (font (size 1.27 1.27) (thickness 0.1016)))
    )
    (fp_text value FTDI-SMD-HEADER (at 0 0 90) (layer F.SilkS)
      (effects (font (size 1.27 1.27) (thickness 0.15)))
    )
    (pad 1 smd rect (at 0 -6.35 90) (size 2.54 1.27) (layers F.Cu F.Paste F.Mask)
      (net 2 GND))
    (pad 2 smd rect (at 0 -3.81 90) (size 2.54 1.27) (layers F.Cu F.Paste F.Mask)
      (net 3 "Net-(M1-Pad2)"))
    (pad 3 smd rect (at 0 -1.27 90) (size 2.54 1.27) (layers F.Cu F.Paste F.Mask)
      (net 20 "Net-(C1-Pad1)"))
    (pad 4 smd rect (at 0 1.27 90) (size 2.54 1.27) (layers F.Cu F.Paste F.Mask)
      (net 21 TX))
    (pad 5 smd rect (at 0 3.81 90) (size 2.54 1.27) (layers F.Cu F.Paste F.Mask)
      (net 22 RX))
    (pad 6 smd rect (at 0 6.35 90) (size 2.54 1.27) (layers F.Cu F.Paste F.Mask)
      (net 4 "Net-(M1-Pad6)"))
  )

  (module Connector_PinHeader_2.54mm:PinHeader_1x09_P2.54mm_Vertical (layer F.Cu) (tedit 59FED5CC) (tstamp 5E68A2A8)
    (at 139.7 133.35 270)
    (descr "Through hole straight pin header, 1x09, 2.54mm pitch, single row")
    (tags "Through hole pin header THT 1x09 2.54mm single row")
    (path /5E7D871F)
    (fp_text reference J2 (at 0 -2.33 90) (layer F.SilkS)
      (effects (font (size 1 1) (thickness 0.15)))
    )
    (fp_text value Conn_01x09_Female (at 0 22.65 90) (layer F.Fab)
      (effects (font (size 1 1) (thickness 0.15)))
    )
    (fp_line (start -0.635 -1.27) (end 1.27 -1.27) (layer F.Fab) (width 0.1))
    (fp_line (start 1.27 -1.27) (end 1.27 21.59) (layer F.Fab) (width 0.1))
    (fp_line (start 1.27 21.59) (end -1.27 21.59) (layer F.Fab) (width 0.1))
    (fp_line (start -1.27 21.59) (end -1.27 -0.635) (layer F.Fab) (width 0.1))
    (fp_line (start -1.27 -0.635) (end -0.635 -1.27) (layer F.Fab) (width 0.1))
    (fp_line (start -1.33 21.65) (end 1.33 21.65) (layer F.SilkS) (width 0.12))
    (fp_line (start -1.33 1.27) (end -1.33 21.65) (layer F.SilkS) (width 0.12))
    (fp_line (start 1.33 1.27) (end 1.33 21.65) (layer F.SilkS) (width 0.12))
    (fp_line (start -1.33 1.27) (end 1.33 1.27) (layer F.SilkS) (width 0.12))
    (fp_line (start -1.33 0) (end -1.33 -1.33) (layer F.SilkS) (width 0.12))
    (fp_line (start -1.33 -1.33) (end 0 -1.33) (layer F.SilkS) (width 0.12))
    (fp_line (start -1.8 -1.8) (end -1.8 22.1) (layer F.CrtYd) (width 0.05))
    (fp_line (start -1.8 22.1) (end 1.8 22.1) (layer F.CrtYd) (width 0.05))
    (fp_line (start 1.8 22.1) (end 1.8 -1.8) (layer F.CrtYd) (width 0.05))
    (fp_line (start 1.8 -1.8) (end -1.8 -1.8) (layer F.CrtYd) (width 0.05))
    (fp_text user %R (at 0 10.16) (layer F.Fab)
      (effects (font (size 1 1) (thickness 0.15)))
    )
    (pad 1 thru_hole rect (at 0 0 270) (size 1.7 1.7) (drill 1) (layers *.Cu *.Mask)
      (net 18 "Net-(J2-Pad1)"))
    (pad 2 thru_hole oval (at 0 2.54 270) (size 1.7 1.7) (drill 1) (layers *.Cu *.Mask)
      (net 17 "Net-(J2-Pad2)"))
    (pad 3 thru_hole oval (at 0 5.08 270) (size 1.7 1.7) (drill 1) (layers *.Cu *.Mask)
      (net 16 "Net-(J2-Pad3)"))
    (pad 4 thru_hole oval (at 0 7.62 270) (size 1.7 1.7) (drill 1) (layers *.Cu *.Mask)
      (net 15 "Net-(J2-Pad4)"))
    (pad 5 thru_hole oval (at 0 10.16 270) (size 1.7 1.7) (drill 1) (layers *.Cu *.Mask)
      (net 14 "Net-(J2-Pad5)"))
    (pad 6 thru_hole oval (at 0 12.7 270) (size 1.7 1.7) (drill 1) (layers *.Cu *.Mask)
      (net 13 "Net-(J2-Pad6)"))
    (pad 7 thru_hole oval (at 0 15.24 270) (size 1.7 1.7) (drill 1) (layers *.Cu *.Mask)
      (net 12 "Net-(J2-Pad7)"))
    (pad 8 thru_hole oval (at 0 17.78 270) (size 1.7 1.7) (drill 1) (layers *.Cu *.Mask)
      (net 11 "Net-(J2-Pad8)"))
    (pad 9 thru_hole oval (at 0 20.32 270) (size 1.7 1.7) (drill 1) (layers *.Cu *.Mask)
      (net 10 "Net-(J2-Pad9)"))
    (model ${KISYS3DMOD}/Connector_PinHeader_2.54mm.3dshapes/PinHeader_1x09_P2.54mm_Vertical.wrl
      (at (xyz 0 0 0))
      (scale (xyz 1 1 1))
      (rotate (xyz 0 0 0))
    )
  )

  (module fab-C1206FAB (layer F.Cu) (tedit 200000) (tstamp 5E68FE9C)
    (at 128.27 86.36)
    (path /5EAABD53)
    (attr smd)
    (fp_text reference C2 (at 0.762 -1.778) (layer F.SilkS)
      (effects (font (size 1.016 1.016) (thickness 0.1524)))
    )
    (fp_text value CAP-UNPOLARIZEDFAB (at 1.27 1.778) (layer F.SilkS)
      (effects (font (size 1.016 1.016) (thickness 0.1524)))
    )
    (fp_line (start -2.032 1.016) (end -2.032 -1.016) (layer B.SilkS) (width 0.127))
    (fp_line (start 2.032 1.016) (end -2.032 1.016) (layer B.SilkS) (width 0.127))
    (fp_line (start 2.032 -1.016) (end 2.032 1.016) (layer B.SilkS) (width 0.127))
    (fp_line (start -2.032 -1.016) (end 2.032 -1.016) (layer B.SilkS) (width 0.127))
    (pad 2 smd rect (at 1.651 0) (size 1.27 1.905) (layers F.Cu F.Paste F.Mask)
      (net 2 GND))
    (pad 1 smd rect (at -1.651 0) (size 1.27 1.905) (layers F.Cu F.Paste F.Mask)
      (net 1 3V3))
  )

  (module fab-C1206FAB (layer F.Cu) (tedit 200000) (tstamp 5E68FEA6)
    (at 119.38 93.98 90)
    (path /5EAB216E)
    (attr smd)
    (fp_text reference C3 (at 0.762 -1.778 90) (layer F.SilkS)
      (effects (font (size 1.016 1.016) (thickness 0.1524)))
    )
    (fp_text value CAP-UNPOLARIZEDFAB (at 1.27 1.778 90) (layer F.SilkS)
      (effects (font (size 1.016 1.016) (thickness 0.1524)))
    )
    (fp_line (start -2.032 -1.016) (end 2.032 -1.016) (layer B.SilkS) (width 0.127))
    (fp_line (start 2.032 -1.016) (end 2.032 1.016) (layer B.SilkS) (width 0.127))
    (fp_line (start 2.032 1.016) (end -2.032 1.016) (layer B.SilkS) (width 0.127))
    (fp_line (start -2.032 1.016) (end -2.032 -1.016) (layer B.SilkS) (width 0.127))
    (pad 1 smd rect (at -1.651 0 90) (size 1.27 1.905) (layers F.Cu F.Paste F.Mask)
      (net 1 3V3))
    (pad 2 smd rect (at 1.651 0 90) (size 1.27 1.905) (layers F.Cu F.Paste F.Mask)
      (net 2 GND))
  )

  (module fab-LED1206FAB (layer F.Cu) (tedit 200000) (tstamp 5E68FEB0)
    (at 125.73 93.98 90)
    (descr "LED1206 FAB STYLE (SMALLER PADS TO ALLOW TRACE BETWEEN)")
    (tags "LED1206 FAB STYLE (SMALLER PADS TO ALLOW TRACE BETWEEN)")
    (path /5EAB996F)
    (attr smd)
    (fp_text reference M2 (at 0.762 -1.778 90) (layer F.SilkS)
      (effects (font (size 1.016 1.016) (thickness 0.1524)))
    )
    (fp_text value LEDFAB1206 (at 1.27 1.778 90) (layer F.SilkS)
      (effects (font (size 1.016 1.016) (thickness 0.1524)))
    )
    (fp_line (start -2.032 1.016) (end -2.032 -1.016) (layer B.SilkS) (width 0.127))
    (fp_line (start 2.032 1.016) (end -2.032 1.016) (layer B.SilkS) (width 0.127))
    (fp_line (start 2.032 -1.016) (end 2.032 1.016) (layer B.SilkS) (width 0.127))
    (fp_line (start -2.032 -1.016) (end 2.032 -1.016) (layer B.SilkS) (width 0.127))
    (pad 2 smd rect (at 1.651 0 90) (size 1.27 1.905) (layers F.Cu F.Paste F.Mask)
      (net 2 GND))
    (pad 1 smd rect (at -1.651 0 90) (size 1.27 1.905) (layers F.Cu F.Paste F.Mask)
      (net 19 "Net-(M2-Pad1)"))
  )

  (module fab-LED1206FAB (layer F.Cu) (tedit 200000) (tstamp 5E68FEBA)
    (at 113.03 133.35)
    (descr "LED1206 FAB STYLE (SMALLER PADS TO ALLOW TRACE BETWEEN)")
    (tags "LED1206 FAB STYLE (SMALLER PADS TO ALLOW TRACE BETWEEN)")
    (path /5E8CD1AA)
    (attr smd)
    (fp_text reference M3 (at 0.762 -1.778) (layer F.SilkS)
      (effects (font (size 1.016 1.016) (thickness 0.1524)))
    )
    (fp_text value LEDFAB1206 (at 1.27 1.778) (layer F.SilkS)
      (effects (font (size 1.016 1.016) (thickness 0.1524)))
    )
    (fp_line (start -2.032 -1.016) (end 2.032 -1.016) (layer B.SilkS) (width 0.127))
    (fp_line (start 2.032 -1.016) (end 2.032 1.016) (layer B.SilkS) (width 0.127))
    (fp_line (start 2.032 1.016) (end -2.032 1.016) (layer B.SilkS) (width 0.127))
    (fp_line (start -2.032 1.016) (end -2.032 -1.016) (layer B.SilkS) (width 0.127))
    (pad 1 smd rect (at -1.651 0) (size 1.27 1.905) (layers F.Cu F.Paste F.Mask)
      (net 10 "Net-(J2-Pad9)"))
    (pad 2 smd rect (at 1.651 0) (size 1.27 1.905) (layers F.Cu F.Paste F.Mask)
      (net 23 "Net-(M3-Pad2)"))
  )

  (module fab-LED1206FAB (layer F.Cu) (tedit 200000) (tstamp 5E68FEC4)
    (at 139.7 128.27)
    (descr "LED1206 FAB STYLE (SMALLER PADS TO ALLOW TRACE BETWEEN)")
    (tags "LED1206 FAB STYLE (SMALLER PADS TO ALLOW TRACE BETWEEN)")
    (path /5EBAD8F7)
    (attr smd)
    (fp_text reference M4 (at 0.762 -1.778) (layer F.SilkS)
      (effects (font (size 1.016 1.016) (thickness 0.1524)))
    )
    (fp_text value LEDFAB1206 (at 1.27 1.778) (layer F.SilkS)
      (effects (font (size 1.016 1.016) (thickness 0.1524)))
    )
    (fp_line (start -2.032 -1.016) (end 2.032 -1.016) (layer B.SilkS) (width 0.127))
    (fp_line (start 2.032 -1.016) (end 2.032 1.016) (layer B.SilkS) (width 0.127))
    (fp_line (start 2.032 1.016) (end -2.032 1.016) (layer B.SilkS) (width 0.127))
    (fp_line (start -2.032 1.016) (end -2.032 -1.016) (layer B.SilkS) (width 0.127))
    (pad 1 smd rect (at -1.651 0) (size 1.27 1.905) (layers F.Cu F.Paste F.Mask)
      (net 18 "Net-(J2-Pad1)"))
    (pad 2 smd rect (at 1.651 0) (size 1.27 1.905) (layers F.Cu F.Paste F.Mask)
      (net 24 "Net-(M4-Pad2)"))
  )

  (module fab-R1206FAB (layer F.Cu) (tedit 200000) (tstamp 5E68FECE)
    (at 130.81 91.44 270)
    (path /5EAB8898)
    (attr smd)
    (fp_text reference R1 (at 0.762 -1.778 90) (layer F.SilkS)
      (effects (font (size 1.016 1.016) (thickness 0.1524)))
    )
    (fp_text value RES-US1206FAB (at 1.27 1.778 90) (layer F.SilkS)
      (effects (font (size 1.016 1.016) (thickness 0.1524)))
    )
    (fp_line (start -2.032 1.016) (end -2.032 -1.016) (layer B.SilkS) (width 0.127))
    (fp_line (start 2.032 1.016) (end -2.032 1.016) (layer B.SilkS) (width 0.127))
    (fp_line (start 2.032 -1.016) (end 2.032 1.016) (layer B.SilkS) (width 0.127))
    (fp_line (start -2.032 -1.016) (end 2.032 -1.016) (layer B.SilkS) (width 0.127))
    (pad 2 smd rect (at 1.651 0 270) (size 1.27 1.905) (layers F.Cu F.Paste F.Mask)
      (net 19 "Net-(M2-Pad1)"))
    (pad 1 smd rect (at -1.651 0 270) (size 1.27 1.905) (layers F.Cu F.Paste F.Mask)
      (net 1 3V3))
  )

  (module fab-R1206FAB (layer F.Cu) (tedit 200000) (tstamp 5E68FED8)
    (at 115.57 128.27)
    (path /5E8D1FAA)
    (attr smd)
    (fp_text reference R2 (at 0.762 -1.778) (layer F.SilkS)
      (effects (font (size 1.016 1.016) (thickness 0.1524)))
    )
    (fp_text value RES-US1206FAB (at 1.27 1.778) (layer F.SilkS)
      (effects (font (size 1.016 1.016) (thickness 0.1524)))
    )
    (fp_line (start -2.032 -1.016) (end 2.032 -1.016) (layer B.SilkS) (width 0.127))
    (fp_line (start 2.032 -1.016) (end 2.032 1.016) (layer B.SilkS) (width 0.127))
    (fp_line (start 2.032 1.016) (end -2.032 1.016) (layer B.SilkS) (width 0.127))
    (fp_line (start -2.032 1.016) (end -2.032 -1.016) (layer B.SilkS) (width 0.127))
    (pad 1 smd rect (at -1.651 0) (size 1.27 1.905) (layers F.Cu F.Paste F.Mask)
      (net 23 "Net-(M3-Pad2)"))
    (pad 2 smd rect (at 1.651 0) (size 1.27 1.905) (layers F.Cu F.Paste F.Mask)
      (net 2 GND))
  )

  (module fab-R1206FAB (layer F.Cu) (tedit 200000) (tstamp 5E68FEEC)
    (at 110.49 96.52 90)
    (path /5EBCE3BC)
    (attr smd)
    (fp_text reference R4 (at 0.762 -1.778 90) (layer F.SilkS)
      (effects (font (size 1.016 1.016) (thickness 0.1524)))
    )
    (fp_text value RES-US1206FAB (at 1.27 1.778 90) (layer F.SilkS)
      (effects (font (size 1.016 1.016) (thickness 0.1524)))
    )
    (fp_line (start -2.032 1.016) (end -2.032 -1.016) (layer B.SilkS) (width 0.127))
    (fp_line (start 2.032 1.016) (end -2.032 1.016) (layer B.SilkS) (width 0.127))
    (fp_line (start 2.032 -1.016) (end 2.032 1.016) (layer B.SilkS) (width 0.127))
    (fp_line (start -2.032 -1.016) (end 2.032 -1.016) (layer B.SilkS) (width 0.127))
    (pad 2 smd rect (at 1.651 0 90) (size 1.27 1.905) (layers F.Cu F.Paste F.Mask)
      (net 25 I014))
    (pad 1 smd rect (at -1.651 0 90) (size 1.27 1.905) (layers F.Cu F.Paste F.Mask)
      (net 1 3V3))
  )

  (module fab-AYZ0102AGRLC (layer F.Cu) (tedit 200000) (tstamp 5E68FF02)
    (at 147.32 133.35 180)
    (path /5EB92E7C)
    (attr smd)
    (fp_text reference S2 (at 0.381 -3.429) (layer F.SilkS)
      (effects (font (size 1.27 1.27) (thickness 0.1016)))
    )
    (fp_text value SLIDE-SWITCH (at 0.508 3.937) (layer F.SilkS)
      (effects (font (size 1.27 1.27) (thickness 0.1016)))
    )
    (fp_line (start -3.59918 1.4986) (end 3.59918 1.4986) (layer B.SilkS) (width 0.127))
    (fp_line (start 3.59918 1.4986) (end 3.59918 -1.4986) (layer B.SilkS) (width 0.127))
    (fp_line (start 3.59918 -1.4986) (end 1.4986 -1.4986) (layer B.SilkS) (width 0.127))
    (fp_line (start 1.4986 -1.4986) (end -1.4986 -1.4986) (layer B.SilkS) (width 0.127))
    (fp_line (start -1.4986 -1.4986) (end -3.59918 -1.4986) (layer B.SilkS) (width 0.127))
    (fp_line (start -3.59918 -1.4986) (end -3.59918 1.4986) (layer B.SilkS) (width 0.127))
    (fp_line (start 0 -1.59766) (end 0 -2.49936) (layer B.SilkS) (width 0.127))
    (fp_line (start 0 -2.49936) (end 1.4986 -2.49936) (layer B.SilkS) (width 0.127))
    (fp_line (start 1.4986 -2.49936) (end 1.4986 -1.4986) (layer B.SilkS) (width 0.127))
    (fp_circle (center -1.4986 -0.39878) (end -1.70942 -0.6096) (layer F.SilkS) (width 0.127))
    (fp_line (start -1.92278 -0.39878) (end -1.07442 -0.39878) (layer F.SilkS) (width 0.127))
    (fp_line (start -1.4986 0.02286) (end -1.4986 -0.82296) (layer F.SilkS) (width 0.127))
    (fp_circle (center 1.4986 -0.39878) (end 1.70942 -0.6096) (layer F.SilkS) (width 0.127))
    (fp_line (start 1.07442 -0.39878) (end 1.92278 -0.39878) (layer F.SilkS) (width 0.127))
    (fp_line (start 1.4986 0.02286) (end 1.4986 -0.82296) (layer F.SilkS) (width 0.127))
    (pad 1 smd rect (at 2.49936 2.2987 180) (size 0.99822 1.19888) (layers F.Cu F.Paste F.Mask)
      (net 2 GND))
    (pad 2 smd rect (at 0 2.2987 180) (size 0.99822 1.19888) (layers F.Cu F.Paste F.Mask)
      (net 27 PROG))
    (pad 3 smd rect (at -2.49936 2.2987 180) (size 0.99822 1.19888) (layers F.Cu F.Paste F.Mask)
      (net 44 "Net-(S2-Pad3)"))
  )

  (module fab-6MM_SWITCH (layer F.Cu) (tedit 200000) (tstamp 5E68FF40)
    (at 109.22 87.63 90)
    (descr "OMRON SWITCH")
    (tags "OMRON SWITCH")
    (path /5EBCE3CD)
    (attr smd)
    (fp_text reference S3 (at 0.127 -4.318 90) (layer F.SilkS)
      (effects (font (size 1.27 1.27) (thickness 0.127)))
    )
    (fp_text value 6MM_SWITCH6MM_SWITCH (at -3.175 22.275799 90) (layer F.SilkS)
      (effects (font (size 1.27 1.27) (thickness 0.127)))
    )
    (fp_line (start 3.302 0.762) (end 3.048 0.762) (layer B.SilkS) (width 0.1524))
    (fp_line (start 3.302 0.762) (end 3.302 -0.762) (layer B.SilkS) (width 0.1524))
    (fp_line (start 3.048 -0.762) (end 3.302 -0.762) (layer B.SilkS) (width 0.1524))
    (fp_line (start 3.048 -1.016) (end 3.048 -2.54) (layer F.SilkS) (width 0.1524))
    (fp_line (start -3.302 -0.762) (end -3.048 -0.762) (layer B.SilkS) (width 0.1524))
    (fp_line (start -3.302 -0.762) (end -3.302 0.762) (layer B.SilkS) (width 0.1524))
    (fp_line (start -3.048 0.762) (end -3.302 0.762) (layer B.SilkS) (width 0.1524))
    (fp_line (start 3.048 -2.54) (end 2.54 -3.048) (layer F.SilkS) (width 0.1524))
    (fp_line (start 2.54 3.048) (end 3.048 2.54) (layer F.SilkS) (width 0.1524))
    (fp_line (start 3.048 2.54) (end 3.048 1.016) (layer F.SilkS) (width 0.1524))
    (fp_line (start -2.54 -3.048) (end -3.048 -2.54) (layer F.SilkS) (width 0.1524))
    (fp_line (start -3.048 -2.54) (end -3.048 -1.016) (layer F.SilkS) (width 0.1524))
    (fp_line (start -2.54 3.048) (end -3.048 2.54) (layer F.SilkS) (width 0.1524))
    (fp_line (start -3.048 2.54) (end -3.048 1.016) (layer F.SilkS) (width 0.1524))
    (fp_line (start -1.27 -1.27) (end -1.27 1.27) (layer F.SilkS) (width 0.0508))
    (fp_line (start 1.27 1.27) (end -1.27 1.27) (layer F.SilkS) (width 0.0508))
    (fp_line (start 1.27 1.27) (end 1.27 -1.27) (layer F.SilkS) (width 0.0508))
    (fp_line (start -1.27 -1.27) (end 1.27 -1.27) (layer F.SilkS) (width 0.0508))
    (fp_line (start -1.27 -3.048) (end -1.27 -2.794) (layer B.SilkS) (width 0.0508))
    (fp_line (start 1.27 -2.794) (end -1.27 -2.794) (layer B.SilkS) (width 0.0508))
    (fp_line (start 1.27 -2.794) (end 1.27 -3.048) (layer B.SilkS) (width 0.0508))
    (fp_line (start 1.143 2.794) (end -1.27 2.794) (layer B.SilkS) (width 0.0508))
    (fp_line (start 1.143 2.794) (end 1.143 3.048) (layer B.SilkS) (width 0.0508))
    (fp_line (start -1.27 2.794) (end -1.27 3.048) (layer B.SilkS) (width 0.0508))
    (fp_line (start 2.54 3.048) (end 2.159 3.048) (layer F.SilkS) (width 0.1524))
    (fp_line (start -2.54 3.048) (end -2.159 3.048) (layer F.SilkS) (width 0.1524))
    (fp_line (start -2.159 3.048) (end -1.27 3.048) (layer B.SilkS) (width 0.1524))
    (fp_line (start -2.54 -3.048) (end -2.159 -3.048) (layer F.SilkS) (width 0.1524))
    (fp_line (start 2.54 -3.048) (end 2.159 -3.048) (layer F.SilkS) (width 0.1524))
    (fp_line (start 2.159 -3.048) (end 1.27 -3.048) (layer B.SilkS) (width 0.1524))
    (fp_line (start 1.27 -3.048) (end -1.27 -3.048) (layer B.SilkS) (width 0.1524))
    (fp_line (start -1.27 -3.048) (end -2.159 -3.048) (layer B.SilkS) (width 0.1524))
    (fp_line (start -1.27 3.048) (end 1.143 3.048) (layer B.SilkS) (width 0.1524))
    (fp_line (start 1.143 3.048) (end 2.159 3.048) (layer B.SilkS) (width 0.1524))
    (fp_line (start 3.048 0.762) (end 3.048 1.016) (layer B.SilkS) (width 0.1524))
    (fp_line (start 3.048 -0.762) (end 3.048 -1.016) (layer B.SilkS) (width 0.1524))
    (fp_line (start -3.048 0.762) (end -3.048 1.016) (layer B.SilkS) (width 0.1524))
    (fp_line (start -3.048 -0.762) (end -3.048 -1.016) (layer B.SilkS) (width 0.1524))
    (fp_line (start -1.27 2.159) (end 1.27 2.159) (layer F.SilkS) (width 0.1524))
    (fp_line (start 1.27 -2.286) (end -1.27 -2.286) (layer F.SilkS) (width 0.1524))
    (fp_line (start -2.413 -1.27) (end -2.413 -0.508) (layer F.SilkS) (width 0.1524))
    (fp_line (start -2.413 0.508) (end -2.413 1.27) (layer F.SilkS) (width 0.1524))
    (fp_line (start -2.413 -0.508) (end -2.159 0.381) (layer F.SilkS) (width 0.1524))
    (fp_circle (center 0 0) (end -0.889 0.889) (layer B.SilkS) (width 0.0762))
    (fp_circle (center -2.159 2.159) (end -2.413 2.413) (layer F.SilkS) (width 0.0762))
    (fp_circle (center 2.159 2.032) (end 2.413 2.286) (layer F.SilkS) (width 0.0762))
    (fp_circle (center 2.159 -2.159) (end 2.413 -2.413) (layer F.SilkS) (width 0.0762))
    (fp_circle (center -2.159 -2.159) (end -2.413 -2.413) (layer F.SilkS) (width 0.0762))
    (fp_circle (center 0 0) (end -0.3175 0.3175) (layer F.SilkS) (width 0.0254))
    (fp_circle (center 0 0) (end -0.127 0.127) (layer B.SilkS) (width 0.0762))
    (fp_text user 1 (at -3.683 -2.286 90) (layer B.SilkS)
      (effects (font (size 1.27 1.27) (thickness 0.127)))
    )
    (fp_text user 2 (at 4.191 -2.159 90) (layer B.SilkS)
      (effects (font (size 1.27 1.27) (thickness 0.127)))
    )
    (fp_text user 3 (at -3.937 2.159 90) (layer B.SilkS)
      (effects (font (size 1.27 1.27) (thickness 0.127)))
    )
    (fp_text user 4 (at 4.191 2.159 90) (layer B.SilkS)
      (effects (font (size 1.27 1.27) (thickness 0.127)))
    )
    (pad 1 smd rect (at -3.302 -2.286 90) (size 2.286 1.524) (layers F.Cu F.Paste F.Mask)
      (net 25 I014))
    (pad 2 smd rect (at 3.302 -2.286 90) (size 2.286 1.524) (layers F.Cu F.Paste F.Mask)
      (net 25 I014))
    (pad 3 smd rect (at -3.302 2.286 90) (size 2.286 1.524) (layers F.Cu F.Paste F.Mask)
      (net 2 GND))
    (pad 4 smd rect (at 3.302 2.286 90) (size 2.286 1.524) (layers F.Cu F.Paste F.Mask)
      (net 2 GND))
  )

  (module Connector_PinHeader_2.54mm:PinHeader_1x11_P2.54mm_Vertical (layer F.Cu) (tedit 59FED5CC) (tstamp 5E6903EA)
    (at 106.68 101.6)
    (descr "Through hole straight pin header, 1x11, 2.54mm pitch, single row")
    (tags "Through hole pin header THT 1x11 2.54mm single row")
    (path /5E8871B7)
    (fp_text reference J1 (at 0 -2.33) (layer F.SilkS)
      (effects (font (size 1 1) (thickness 0.15)))
    )
    (fp_text value Conn_01x11_Female (at 0 27.73) (layer F.Fab)
      (effects (font (size 1 1) (thickness 0.15)))
    )
    (fp_line (start -0.635 -1.27) (end 1.27 -1.27) (layer F.Fab) (width 0.1))
    (fp_line (start 1.27 -1.27) (end 1.27 26.67) (layer F.Fab) (width 0.1))
    (fp_line (start 1.27 26.67) (end -1.27 26.67) (layer F.Fab) (width 0.1))
    (fp_line (start -1.27 26.67) (end -1.27 -0.635) (layer F.Fab) (width 0.1))
    (fp_line (start -1.27 -0.635) (end -0.635 -1.27) (layer F.Fab) (width 0.1))
    (fp_line (start -1.33 26.73) (end 1.33 26.73) (layer F.SilkS) (width 0.12))
    (fp_line (start -1.33 1.27) (end -1.33 26.73) (layer F.SilkS) (width 0.12))
    (fp_line (start 1.33 1.27) (end 1.33 26.73) (layer F.SilkS) (width 0.12))
    (fp_line (start -1.33 1.27) (end 1.33 1.27) (layer F.SilkS) (width 0.12))
    (fp_line (start -1.33 0) (end -1.33 -1.33) (layer F.SilkS) (width 0.12))
    (fp_line (start -1.33 -1.33) (end 0 -1.33) (layer F.SilkS) (width 0.12))
    (fp_line (start -1.8 -1.8) (end -1.8 27.2) (layer F.CrtYd) (width 0.05))
    (fp_line (start -1.8 27.2) (end 1.8 27.2) (layer F.CrtYd) (width 0.05))
    (fp_line (start 1.8 27.2) (end 1.8 -1.8) (layer F.CrtYd) (width 0.05))
    (fp_line (start 1.8 -1.8) (end -1.8 -1.8) (layer F.CrtYd) (width 0.05))
    (fp_text user %R (at 0 12.7 90) (layer F.Fab)
      (effects (font (size 1 1) (thickness 0.15)))
    )
    (pad 1 thru_hole rect (at 0 0) (size 1.7 1.7) (drill 1) (layers *.Cu *.Mask)
      (net 28 "Net-(J1-Pad1)"))
    (pad 2 thru_hole oval (at 0 2.54) (size 1.7 1.7) (drill 1) (layers *.Cu *.Mask)
      (net 29 "Net-(J1-Pad2)"))
    (pad 3 thru_hole oval (at 0 5.08) (size 1.7 1.7) (drill 1) (layers *.Cu *.Mask)
      (net 5 "Net-(J1-Pad3)"))
    (pad 4 thru_hole oval (at 0 7.62) (size 1.7 1.7) (drill 1) (layers *.Cu *.Mask)
      (net 6 "Net-(J1-Pad4)"))
    (pad 5 thru_hole oval (at 0 10.16) (size 1.7 1.7) (drill 1) (layers *.Cu *.Mask)
      (net 30 "Net-(J1-Pad5)"))
    (pad 6 thru_hole oval (at 0 12.7) (size 1.7 1.7) (drill 1) (layers *.Cu *.Mask)
      (net 31 "Net-(J1-Pad6)"))
    (pad 7 thru_hole oval (at 0 15.24) (size 1.7 1.7) (drill 1) (layers *.Cu *.Mask)
      (net 32 "Net-(J1-Pad7)"))
    (pad 8 thru_hole oval (at 0 17.78) (size 1.7 1.7) (drill 1) (layers *.Cu *.Mask)
      (net 33 "Net-(J1-Pad8)"))
    (pad 9 thru_hole oval (at 0 20.32) (size 1.7 1.7) (drill 1) (layers *.Cu *.Mask)
      (net 7 "Net-(J1-Pad9)"))
    (pad 10 thru_hole oval (at 0 22.86) (size 1.7 1.7) (drill 1) (layers *.Cu *.Mask)
      (net 8 "Net-(J1-Pad10)"))
    (pad 11 thru_hole oval (at 0 25.4) (size 1.7 1.7) (drill 1) (layers *.Cu *.Mask)
      (net 9 "Net-(J1-Pad11)"))
    (model ${KISYS3DMOD}/Connector_PinHeader_2.54mm.3dshapes/PinHeader_1x11_P2.54mm_Vertical.wrl
      (at (xyz 0 0 0))
      (scale (xyz 1 1 1))
      (rotate (xyz 0 0 0))
    )
  )

  (module Connector_PinHeader_2.54mm:PinHeader_1x13_P2.54mm_Vertical (layer F.Cu) (tedit 59FED5CC) (tstamp 5E69059E)
    (at 148.59 90.17)
    (descr "Through hole straight pin header, 1x13, 2.54mm pitch, single row")
    (tags "Through hole pin header THT 1x13 2.54mm single row")
    (path /5EC2892F)
    (fp_text reference J3 (at 0 -2.33) (layer F.SilkS)
      (effects (font (size 1 1) (thickness 0.15)))
    )
    (fp_text value Conn_01x13_Female (at 0 32.81) (layer F.Fab)
      (effects (font (size 1 1) (thickness 0.15)))
    )
    (fp_line (start -0.635 -1.27) (end 1.27 -1.27) (layer F.Fab) (width 0.1))
    (fp_line (start 1.27 -1.27) (end 1.27 31.75) (layer F.Fab) (width 0.1))
    (fp_line (start 1.27 31.75) (end -1.27 31.75) (layer F.Fab) (width 0.1))
    (fp_line (start -1.27 31.75) (end -1.27 -0.635) (layer F.Fab) (width 0.1))
    (fp_line (start -1.27 -0.635) (end -0.635 -1.27) (layer F.Fab) (width 0.1))
    (fp_line (start -1.33 31.81) (end 1.33 31.81) (layer F.SilkS) (width 0.12))
    (fp_line (start -1.33 1.27) (end -1.33 31.81) (layer F.SilkS) (width 0.12))
    (fp_line (start 1.33 1.27) (end 1.33 31.81) (layer F.SilkS) (width 0.12))
    (fp_line (start -1.33 1.27) (end 1.33 1.27) (layer F.SilkS) (width 0.12))
    (fp_line (start -1.33 0) (end -1.33 -1.33) (layer F.SilkS) (width 0.12))
    (fp_line (start -1.33 -1.33) (end 0 -1.33) (layer F.SilkS) (width 0.12))
    (fp_line (start -1.8 -1.8) (end -1.8 32.25) (layer F.CrtYd) (width 0.05))
    (fp_line (start -1.8 32.25) (end 1.8 32.25) (layer F.CrtYd) (width 0.05))
    (fp_line (start 1.8 32.25) (end 1.8 -1.8) (layer F.CrtYd) (width 0.05))
    (fp_line (start 1.8 -1.8) (end -1.8 -1.8) (layer F.CrtYd) (width 0.05))
    (fp_text user %R (at 0 15.24 90) (layer F.Fab)
      (effects (font (size 1 1) (thickness 0.15)))
    )
    (pad 1 thru_hole rect (at 0 0) (size 1.7 1.7) (drill 1) (layers *.Cu *.Mask)
      (net 1 3V3))
    (pad 2 thru_hole oval (at 0 2.54) (size 1.7 1.7) (drill 1) (layers *.Cu *.Mask)
      (net 2 GND))
    (pad 3 thru_hole oval (at 0 5.08) (size 1.7 1.7) (drill 1) (layers *.Cu *.Mask)
      (net 42 "Net-(J3-Pad3)"))
    (pad 4 thru_hole oval (at 0 7.62) (size 1.7 1.7) (drill 1) (layers *.Cu *.Mask)
      (net 41 "Net-(J3-Pad4)"))
    (pad 5 thru_hole oval (at 0 10.16) (size 1.7 1.7) (drill 1) (layers *.Cu *.Mask)
      (net 22 RX))
    (pad 6 thru_hole oval (at 0 12.7) (size 1.7 1.7) (drill 1) (layers *.Cu *.Mask)
      (net 21 TX))
    (pad 7 thru_hole oval (at 0 15.24) (size 1.7 1.7) (drill 1) (layers *.Cu *.Mask)
      (net 40 "Net-(J3-Pad7)"))
    (pad 8 thru_hole oval (at 0 17.78) (size 1.7 1.7) (drill 1) (layers *.Cu *.Mask)
      (net 39 "Net-(J3-Pad8)"))
    (pad 9 thru_hole oval (at 0 20.32) (size 1.7 1.7) (drill 1) (layers *.Cu *.Mask)
      (net 38 "Net-(J3-Pad9)"))
    (pad 10 thru_hole oval (at 0 22.86) (size 1.7 1.7) (drill 1) (layers *.Cu *.Mask)
      (net 37 "Net-(J3-Pad10)"))
    (pad 11 thru_hole oval (at 0 25.4) (size 1.7 1.7) (drill 1) (layers *.Cu *.Mask)
      (net 36 "Net-(J3-Pad11)"))
    (pad 12 thru_hole oval (at 0 27.94) (size 1.7 1.7) (drill 1) (layers *.Cu *.Mask)
      (net 35 "Net-(J3-Pad12)"))
    (pad 13 thru_hole oval (at 0 30.48) (size 1.7 1.7) (drill 1) (layers *.Cu *.Mask)
      (net 34 "Net-(J3-Pad13)"))
    (model ${KISYS3DMOD}/Connector_PinHeader_2.54mm.3dshapes/PinHeader_1x13_P2.54mm_Vertical.wrl
      (at (xyz 0 0 0))
      (scale (xyz 1 1 1))
      (rotate (xyz 0 0 0))
    )
  )

  (dimension 6.35 (width 0.12) (layer F.SilkS)
    (gr_text "6,350 mm" (at 96.52 102.235 270) (layer F.SilkS)
      (effects (font (size 1 1) (thickness 0.15)))
    )
    (feature1 (pts (xy 133.35 105.41) (xy 97.203579 105.41)))
    (feature2 (pts (xy 133.35 99.06) (xy 97.203579 99.06)))
    (crossbar (pts (xy 97.79 99.06) (xy 97.79 105.41)))
    (arrow1a (pts (xy 97.79 105.41) (xy 97.203579 104.283496)))
    (arrow1b (pts (xy 97.79 105.41) (xy 98.376421 104.283496)))
    (arrow2a (pts (xy 97.79 99.06) (xy 97.203579 100.186504)))
    (arrow2b (pts (xy 97.79 99.06) (xy 98.376421 100.186504)))
  )
  (dimension 17.78 (width 0.12) (layer F.SilkS)
    (gr_text "17,780 mm" (at 128.27 105.41) (layer F.SilkS)
      (effects (font (size 1 1) (thickness 0.15)))
    )
    (feature1 (pts (xy 137.16 102.87) (xy 137.16 104.726421)))
    (feature2 (pts (xy 119.38 102.87) (xy 119.38 104.726421)))
    (crossbar (pts (xy 119.38 104.14) (xy 137.16 104.14)))
    (arrow1a (pts (xy 137.16 104.14) (xy 136.033496 104.726421)))
    (arrow1b (pts (xy 137.16 104.14) (xy 136.033496 103.553579)))
    (arrow2a (pts (xy 119.38 104.14) (xy 120.506504 104.726421)))
    (arrow2b (pts (xy 119.38 104.14) (xy 120.506504 103.553579)))
  )
  (dimension 74.93 (width 0.15) (layer Dwgs.User)
    (gr_text "74.930 mm" (at 152.37 118.745 270) (layer Dwgs.User)
      (effects (font (size 1 1) (thickness 0.15)))
    )
    (feature1 (pts (xy 154.94 156.21) (xy 153.083579 156.21)))
    (feature2 (pts (xy 154.94 81.28) (xy 153.083579 81.28)))
    (crossbar (pts (xy 153.67 81.28) (xy 153.67 156.21)))
    (arrow1a (pts (xy 153.67 156.21) (xy 153.083579 155.083496)))
    (arrow1b (pts (xy 153.67 156.21) (xy 154.256421 155.083496)))
    (arrow2a (pts (xy 153.67 81.28) (xy 153.083579 82.406504)))
    (arrow2b (pts (xy 153.67 81.28) (xy 154.256421 82.406504)))
  )
  (dimension 50.8 (width 0.15) (layer Dwgs.User)
    (gr_text "50.800 mm" (at 128.27 82.58) (layer Dwgs.User)
      (effects (font (size 1 1) (thickness 0.15)))
    )
    (feature1 (pts (xy 153.67 81.28) (xy 153.67 81.866421)))
    (feature2 (pts (xy 102.87 81.28) (xy 102.87 81.866421)))
    (crossbar (pts (xy 102.87 81.28) (xy 153.67 81.28)))
    (arrow1a (pts (xy 153.67 81.28) (xy 152.543496 81.866421)))
    (arrow1b (pts (xy 153.67 81.28) (xy 152.543496 80.693579)))
    (arrow2a (pts (xy 102.87 81.28) (xy 103.996504 81.866421)))
    (arrow2b (pts (xy 102.87 81.28) (xy 103.996504 80.693579)))
  )

  (segment (start 115.951 102.9525) (end 115.951 101.6) (width 0.4) (layer F.Cu) (net 1))
  (segment (start 115.951 106.171) (end 115.951 102.9525) (width 0.4) (layer F.Cu) (net 1))
  (segment (start 117.53 107.75) (end 115.951 106.171) (width 0.4) (layer F.Cu) (net 1))
  (segment (start 119.18 107.75) (end 117.53 107.75) (width 0.4) (layer F.Cu) (net 1))
  (segment (start 105.983999 128.450001) (end 105.229999 127.696001) (width 0.4) (layer F.Cu) (net 1))
  (segment (start 121.63001 108.55001) (end 121.63001 109.351374) (width 0.4) (layer F.Cu) (net 1))
  (segment (start 105.229999 127.696001) (end 105.229999 100.269999) (width 0.4) (layer F.Cu) (net 1))
  (segment (start 121.030001 109.951383) (end 121.030001 123.820001) (width 0.4) (layer F.Cu) (net 1))
  (segment (start 107.376001 128.450001) (end 105.983999 128.450001) (width 0.4) (layer F.Cu) (net 1))
  (segment (start 105.229999 100.269999) (end 105.349999 100.149999) (width 0.4) (layer F.Cu) (net 1))
  (segment (start 120.910001 123.940001) (end 111.886001 123.940001) (width 0.4) (layer F.Cu) (net 1))
  (segment (start 111.886001 123.940001) (end 107.376001 128.450001) (width 0.4) (layer F.Cu) (net 1))
  (segment (start 121.030001 123.820001) (end 120.910001 123.940001) (width 0.4) (layer F.Cu) (net 1))
  (segment (start 119.18 107.75) (end 120.83 107.75) (width 0.4) (layer F.Cu) (net 1))
  (segment (start 121.63001 109.351374) (end 121.030001 109.951383) (width 0.4) (layer F.Cu) (net 1))
  (segment (start 120.83 107.75) (end 121.63001 108.55001) (width 0.4) (layer F.Cu) (net 1))
  (segment (start 110.49 98.171) (end 107.328998 98.171) (width 0.4) (layer F.Cu) (net 1))
  (segment (start 107.328998 98.171) (end 105.229999 100.269999) (width 0.4) (layer F.Cu) (net 1))
  (segment (start 105.229999 100.269999) (end 105.229999 101.6) (width 0.4) (layer F.Cu) (net 1))
  (segment (start 115.951 100.2475) (end 115.951 101.6) (width 0.4) (layer F.Cu) (net 1))
  (segment (start 119.38 96.8185) (end 119.38 95.631) (width 0.4) (layer F.Cu) (net 1))
  (segment (start 115.951 100.2475) (end 119.38 96.8185) (width 0.4) (layer F.Cu) (net 1))
  (segment (start 119.38 96.666) (end 119.516501 96.802501) (width 0.4) (layer F.Cu) (net 1))
  (segment (start 126.619 86.36) (end 126.619 86.6775) (width 0.4) (layer F.Cu) (net 1))
  (segment (start 119.38 95.631) (end 119.38 96.666) (width 0.4) (layer F.Cu) (net 1))
  (segment (start 129.4575 90.824) (end 130.4925 89.789) (width 0.4) (layer F.Cu) (net 1))
  (segment (start 127.034999 93.564001) (end 129.4575 91.1415) (width 0.4) (layer F.Cu) (net 1))
  (segment (start 130.4925 89.789) (end 130.81 89.789) (width 0.4) (layer F.Cu) (net 1))
  (segment (start 129.4575 91.1415) (end 129.4575 90.824) (width 0.4) (layer F.Cu) (net 1))
  (segment (start 123.142499 93.564001) (end 127.034999 93.564001) (width 0.4) (layer F.Cu) (net 1))
  (segment (start 121.0755 95.631) (end 123.142499 93.564001) (width 0.4) (layer F.Cu) (net 1))
  (segment (start 119.38 95.631) (end 121.0755 95.631) (width 0.4) (layer F.Cu) (net 1))
  (segment (start 128.6955 89.789) (end 129.4575 89.789) (width 0.4) (layer F.Cu) (net 1))
  (segment (start 126.619 87.7125) (end 128.6955 89.789) (width 0.4) (layer F.Cu) (net 1))
  (segment (start 129.4575 89.789) (end 130.81 89.789) (width 0.4) (layer F.Cu) (net 1))
  (segment (start 126.619 86.36) (end 126.619 87.7125) (width 0.4) (layer F.Cu) (net 1))
  (segment (start 135.28 93.98) (end 135.28 92.9065) (width 0.4) (layer F.Cu) (net 1))
  (segment (start 133.389 89.789) (end 135.28 91.68) (width 0.4) (layer F.Cu) (net 1))
  (segment (start 135.28 91.68) (end 135.28 93.98) (width 0.4) (layer F.Cu) (net 1))
  (segment (start 130.81 89.789) (end 133.389 89.789) (width 0.4) (layer F.Cu) (net 1))
  (segment (start 144.78 93.98) (end 148.59 90.17) (width 0.4) (layer F.Cu) (net 1))
  (segment (start 141.58 93.98) (end 144.78 93.98) (width 0.4) (layer F.Cu) (net 1))
  (segment (start 122.465 126.13) (end 122.465 124.48) (width 0.4) (layer F.Cu) (net 2))
  (segment (start 120.325 128.27) (end 122.465 126.13) (width 0.4) (layer F.Cu) (net 2))
  (segment (start 117.221 128.27) (end 120.325 128.27) (width 0.4) (layer F.Cu) (net 2))
  (segment (start 143.92153 131.0513) (end 144.82064 131.0513) (width 0.4) (layer F.Cu) (net 2))
  (segment (start 143.891 131.02077) (end 143.92153 131.0513) (width 0.4) (layer F.Cu) (net 2))
  (segment (start 143.891 125.73) (end 143.891 131.02077) (width 0.4) (layer F.Cu) (net 2))
  (segment (start 143.891 124.3775) (end 143.891 125.73) (width 0.4) (layer F.Cu) (net 2))
  (segment (start 143.690999 124.177499) (end 143.891 124.3775) (width 0.4) (layer F.Cu) (net 2))
  (segment (start 135.687497 124.177499) (end 143.690999 124.177499) (width 0.4) (layer F.Cu) (net 2))
  (segment (start 135.329999 123.820001) (end 135.687497 124.177499) (width 0.4) (layer F.Cu) (net 2))
  (segment (start 135.329999 118.229999) (end 135.329999 123.820001) (width 0.4) (layer F.Cu) (net 2))
  (segment (start 131.28 114.18) (end 135.329999 118.229999) (width 0.4) (layer F.Cu) (net 2))
  (segment (start 122.465 116.195) (end 122.465 122.83) (width 0.4) (layer F.Cu) (net 2))
  (segment (start 124.48 114.18) (end 122.465 116.195) (width 0.4) (layer F.Cu) (net 2))
  (segment (start 127.88 114.18) (end 124.48 114.18) (width 0.4) (layer F.Cu) (net 2))
  (segment (start 130.93 111.08) (end 135.53 106.48) (width 0.4) (layer F.Cu) (net 2))
  (segment (start 130.93 114.18) (end 130.93 111.08) (width 0.4) (layer F.Cu) (net 2))
  (segment (start 127.88 114.18) (end 130.93 114.18) (width 0.4) (layer F.Cu) (net 2))
  (segment (start 135.53 106.48) (end 137.18 106.48) (width 0.4) (layer F.Cu) (net 2))
  (segment (start 130.93 114.18) (end 131.28 114.18) (width 0.4) (layer F.Cu) (net 2))
  (segment (start 148.59 93.1735) (end 148.59 92.71) (width 0.4) (layer F.Cu) (net 2))
  (segment (start 137.329991 106.629991) (end 137.18 106.48) (width 0.4) (layer F.Cu) (net 2))
  (segment (start 122.465 122.83) (end 122.465 124.48) (width 0.4) (layer F.Cu) (net 2))
  (segment (start 122.465 108.115) (end 122.465 122.83) (width 0.4) (layer F.Cu) (net 2))
  (segment (start 120.83 106.48) (end 122.465 108.115) (width 0.4) (layer F.Cu) (net 2))
  (segment (start 119.18 106.48) (end 120.83 106.48) (width 0.4) (layer F.Cu) (net 2))
  (segment (start 135.929999 85.285001) (end 136.125 85.09) (width 0.4) (layer F.Cu) (net 2))
  (segment (start 111.506 84.328) (end 111.506 90.932) (width 0.4) (layer F.Cu) (net 2))
  (segment (start 115.824 84.328) (end 116.078 84.074) (width 0.4) (layer F.Cu) (net 2))
  (segment (start 111.506 84.328) (end 115.824 84.328) (width 0.4) (layer F.Cu) (net 2))
  (segment (start 116.078 84.074) (end 122.682 84.074) (width 0.4) (layer F.Cu) (net 2))
  (segment (start 131.445 84.074) (end 132.08 84.709) (width 0.4) (layer F.Cu) (net 2))
  (segment (start 122.682 84.074) (end 131.445 84.074) (width 0.4) (layer F.Cu) (net 2))
  (segment (start 122.682 84.074) (end 124.225 84.074) (width 0.4) (layer F.Cu) (net 2))
  (segment (start 133.35 85.744) (end 133.35 84.709) (width 0.4) (layer F.Cu) (net 2))
  (segment (start 132.734 86.36) (end 133.35 85.744) (width 0.4) (layer F.Cu) (net 2))
  (segment (start 129.921 86.36) (end 132.734 86.36) (width 0.4) (layer F.Cu) (net 2))
  (segment (start 132.08 84.709) (end 133.35 84.709) (width 0.4) (layer F.Cu) (net 2))
  (segment (start 111.506 89.389) (end 111.506 90.932) (width 0.4) (layer F.Cu) (net 2))
  (segment (start 124.305001 87.283999) (end 113.611001 87.283999) (width 0.4) (layer F.Cu) (net 2))
  (segment (start 124.425001 87.403999) (end 124.305001 87.283999) (width 0.4) (layer F.Cu) (net 2))
  (segment (start 113.611001 87.283999) (end 111.506 89.389) (width 0.4) (layer F.Cu) (net 2))
  (segment (start 124.425001 89.888001) (end 124.425001 87.403999) (width 0.4) (layer F.Cu) (net 2))
  (segment (start 121.984002 92.329) (end 124.425001 89.888001) (width 0.4) (layer F.Cu) (net 2))
  (segment (start 119.38 92.329) (end 121.984002 92.329) (width 0.4) (layer F.Cu) (net 2))
  (segment (start 135.89 83.674) (end 135.89 84.69) (width 0.4) (layer F.Cu) (net 2))
  (segment (start 135.89 84.69) (end 135.89 86.36) (width 0.4) (layer F.Cu) (net 2))
  (segment (start 137.014 82.55) (end 135.89 83.674) (width 0.4) (layer F.Cu) (net 2))
  (segment (start 138.049 82.55) (end 137.014 82.55) (width 0.4) (layer F.Cu) (net 2))
  (segment (start 125.73 91.193) (end 125.73 92.329) (width 0.4) (layer F.Cu) (net 2))
  (segment (start 124.425001 89.888001) (end 125.73 91.193) (width 0.4) (layer F.Cu) (net 2))
  (segment (start 146.29 95.01) (end 148.59 92.71) (width 0.4) (layer F.Cu) (net 2))
  (segment (start 146.05 95.25) (end 145.02 96.28) (width 0.4) (layer F.Cu) (net 2))
  (segment (start 148.59 92.71) (end 146.05 95.25) (width 0.4) (layer F.Cu) (net 2))
  (segment (start 135.89 86.36) (end 135.89 88.03) (width 0.4) (layer F.Cu) (net 2))
  (segment (start 140.18 96.28) (end 141.58 96.28) (width 0.4) (layer F.Cu) (net 2))
  (segment (start 139.979999 96.079999) (end 140.18 96.28) (width 0.4) (layer F.Cu) (net 2))
  (segment (start 139.979999 92.119999) (end 139.979999 96.079999) (width 0.4) (layer F.Cu) (net 2))
  (segment (start 135.89 88.03) (end 139.979999 92.119999) (width 0.4) (layer F.Cu) (net 2))
  (segment (start 144.54 96.28) (end 144.78 96.52) (width 0.4) (layer F.Cu) (net 2))
  (segment (start 141.58 96.28) (end 144.54 96.28) (width 0.4) (layer F.Cu) (net 2))
  (segment (start 146.05 95.25) (end 144.78 96.52) (width 0.4) (layer F.Cu) (net 2))
  (segment (start 135.871 84.709) (end 135.89 84.69) (width 0.4) (layer F.Cu) (net 2))
  (segment (start 133.35 84.709) (end 135.871 84.709) (width 0.4) (layer F.Cu) (net 2))
  (segment (start 137.27 106.51) (end 138.17 106.51) (width 0.4) (layer F.Cu) (net 2))
  (segment (start 139.7 99.31) (end 139.7 105.41) (width 0.4) (layer F.Cu) (net 2))
  (segment (start 141.58 97.43) (end 139.7 99.31) (width 0.4) (layer F.Cu) (net 2))
  (segment (start 141.58 96.28) (end 141.58 97.43) (width 0.4) (layer F.Cu) (net 2))
  (segment (start 139.7 105.41) (end 139.7 104.98) (width 0.4) (layer F.Cu) (net 2))
  (segment (start 138.17 106.51) (end 139.7 105.41) (width 0.4) (layer F.Cu) (net 2))
  (segment (start 117.769998 112.83) (end 119.18 112.83) (width 0.4) (layer F.Cu) (net 5))
  (segment (start 112.83 112.83) (end 106.68 106.68) (width 0.4) (layer F.Cu) (net 5))
  (segment (start 119.18 112.83) (end 112.83 112.83) (width 0.4) (layer F.Cu) (net 5))
  (segment (start 117.771384 114.1) (end 119.18 114.1) (width 0.4) (layer F.Cu) (net 6))
  (segment (start 116.64 114.1) (end 119.18 114.1) (width 0.4) (layer F.Cu) (net 6))
  (segment (start 111.56 114.1) (end 106.68 109.22) (width 0.4) (layer F.Cu) (net 6))
  (segment (start 119.18 114.1) (end 111.56 114.1) (width 0.4) (layer F.Cu) (net 6))
  (segment (start 117.53 120.45) (end 119.18 120.45) (width 0.4) (layer F.Cu) (net 7))
  (segment (start 108.15 120.45) (end 106.68 121.92) (width 0.4) (layer F.Cu) (net 7))
  (segment (start 119.18 120.45) (end 108.15 120.45) (width 0.4) (layer F.Cu) (net 7))
  (segment (start 117.53 121.72) (end 119.18 121.72) (width 0.4) (layer F.Cu) (net 8))
  (segment (start 109.42 121.72) (end 106.68 124.46) (width 0.4) (layer F.Cu) (net 8))
  (segment (start 119.18 121.72) (end 109.42 121.72) (width 0.4) (layer F.Cu) (net 8))
  (segment (start 117.53 122.99) (end 119.18 122.99) (width 0.4) (layer F.Cu) (net 9))
  (segment (start 110.69 122.99) (end 117.53 122.99) (width 0.4) (layer F.Cu) (net 9))
  (segment (start 106.68 127) (end 110.69 122.99) (width 0.4) (layer F.Cu) (net 9))
  (segment (start 123.735 128.995) (end 119.38 133.35) (width 0.4) (layer F.Cu) (net 10))
  (segment (start 123.735 124.48) (end 123.735 128.995) (width 0.4) (layer F.Cu) (net 10))
  (segment (start 118.530001 134.199999) (end 119.38 133.35) (width 0.4) (layer F.Cu) (net 10))
  (segment (start 117.827499 134.902501) (end 118.530001 134.199999) (width 0.4) (layer F.Cu) (net 10))
  (segment (start 111.579001 134.902501) (end 117.827499 134.902501) (width 0.4) (layer F.Cu) (net 10))
  (segment (start 111.379 134.7025) (end 111.579001 134.902501) (width 0.4) (layer F.Cu) (net 10))
  (segment (start 111.379 133.35) (end 111.379 134.7025) (width 0.4) (layer F.Cu) (net 10))
  (segment (start 125.005 130.265) (end 125.005 124.48) (width 0.4) (layer F.Cu) (net 11))
  (segment (start 121.92 133.35) (end 125.005 130.265) (width 0.4) (layer F.Cu) (net 11))
  (segment (start 126.275 131.535) (end 126.275 124.48) (width 0.4) (layer F.Cu) (net 12))
  (segment (start 124.46 133.35) (end 126.275 131.535) (width 0.4) (layer F.Cu) (net 12))
  (segment (start 127.849999 132.500001) (end 127 133.35) (width 0.4) (layer F.Cu) (net 13))
  (segment (start 127.849999 125.489999) (end 127.849999 132.500001) (width 0.4) (layer F.Cu) (net 13))
  (segment (start 127.545 125.185) (end 127.849999 125.489999) (width 0.4) (layer F.Cu) (net 13))
  (segment (start 127.545 124.48) (end 127.545 125.185) (width 0.4) (layer F.Cu) (net 13))
  (segment (start 128.690001 132.500001) (end 129.54 133.35) (width 0.4) (layer F.Cu) (net 14))
  (segment (start 128.690001 125.309999) (end 128.690001 132.500001) (width 0.4) (layer F.Cu) (net 14))
  (segment (start 128.815 125.185) (end 128.690001 125.309999) (width 0.4) (layer F.Cu) (net 14))
  (segment (start 128.815 124.48) (end 128.815 125.185) (width 0.4) (layer F.Cu) (net 14))
  (segment (start 130.085 131.355) (end 132.08 133.35) (width 0.4) (layer F.Cu) (net 15))
  (segment (start 130.085 124.48) (end 130.085 131.355) (width 0.4) (layer F.Cu) (net 15))
  (segment (start 131.355 130.085) (end 134.62 133.35) (width 0.4) (layer F.Cu) (net 16))
  (segment (start 131.355 124.48) (end 131.355 130.085) (width 0.4) (layer F.Cu) (net 16))
  (segment (start 132.625 128.815) (end 137.16 133.35) (width 0.4) (layer F.Cu) (net 17))
  (segment (start 132.625 124.48) (end 132.625 128.815) (width 0.4) (layer F.Cu) (net 17))
  (segment (start 133.895 124.48) (end 133.895 127.545) (width 0.4) (layer F.Cu) (net 18))
  (segment (start 139.084 128.27) (end 139.7 128.886) (width 0.4) (layer F.Cu) (net 18))
  (segment (start 139.7 132.1) (end 139.7 133.35) (width 0.4) (layer F.Cu) (net 18))
  (segment (start 139.7 128.886) (end 139.7 132.1) (width 0.4) (layer F.Cu) (net 18))
  (segment (start 138.049 128.27) (end 139.084 128.27) (width 0.4) (layer F.Cu) (net 18))
  (segment (start 134.62 128.27) (end 133.895 127.545) (width 0.4) (layer F.Cu) (net 18))
  (segment (start 138.049 128.27) (end 134.62 128.27) (width 0.4) (layer F.Cu) (net 18))
  (segment (start 127.0825 95.631) (end 125.73 95.631) (width 0.4) (layer F.Cu) (net 19))
  (segment (start 129.305 95.631) (end 127.0825 95.631) (width 0.4) (layer F.Cu) (net 19))
  (segment (start 130.81 94.126) (end 129.305 95.631) (width 0.4) (layer F.Cu) (net 19))
  (segment (start 130.81 93.091) (end 130.81 94.126) (width 0.4) (layer F.Cu) (net 19))
  (segment (start 141.351 85.979) (end 140.97 86.36) (width 0.4) (layer F.Cu) (net 20))
  (segment (start 141.351 82.55) (end 141.351 85.979) (width 0.4) (layer F.Cu) (net 20))
  (segment (start 140.97 91.07) (end 141.58 91.68) (width 0.4) (layer F.Cu) (net 20))
  (segment (start 141.58 86.97) (end 140.97 86.36) (width 0.4) (layer F.Cu) (net 20))
  (segment (start 141.58 91.68) (end 141.58 86.97) (width 0.4) (layer F.Cu) (net 20))
  (segment (start 138.590002 111.56) (end 137.18 111.56) (width 0.4) (layer F.Cu) (net 21))
  (segment (start 148.59 102.87) (end 139.7 111.76) (width 0.4) (layer F.Cu) (net 21))
  (segment (start 138.23 111.56) (end 137.18 111.56) (width 0.4) (layer F.Cu) (net 21))
  (segment (start 138.43 111.76) (end 138.23 111.56) (width 0.4) (layer F.Cu) (net 21))
  (segment (start 139.7 111.76) (end 138.43 111.76) (width 0.4) (layer F.Cu) (net 21))
  (segment (start 144.78 85.09) (end 143.51 86.36) (width 0.4) (layer F.Cu) (net 21))
  (segment (start 150.975001 83.219999) (end 144.980001 83.219999) (width 0.4) (layer F.Cu) (net 21))
  (segment (start 151.095001 83.339999) (end 150.975001 83.219999) (width 0.4) (layer F.Cu) (net 21))
  (segment (start 144.78 83.42) (end 144.78 85.09) (width 0.4) (layer F.Cu) (net 21))
  (segment (start 151.095001 100.364999) (end 151.095001 83.339999) (width 0.4) (layer F.Cu) (net 21))
  (segment (start 144.980001 83.219999) (end 144.78 83.42) (width 0.4) (layer F.Cu) (net 21))
  (segment (start 148.59 102.87) (end 151.095001 100.364999) (width 0.4) (layer F.Cu) (net 21))
  (segment (start 138.63 110.29) (end 137.18 110.29) (width 0.4) (layer F.Cu) (net 22))
  (segment (start 138.728618 110.29) (end 137.18 110.29) (width 0.4) (layer F.Cu) (net 22))
  (segment (start 148.59 100.428618) (end 138.728618 110.29) (width 0.4) (layer F.Cu) (net 22))
  (segment (start 148.59 100.33) (end 148.59 100.428618) (width 0.4) (layer F.Cu) (net 22))
  (segment (start 150.040001 98.879999) (end 149.439999 99.480001) (width 0.4) (layer F.Cu) (net 22))
  (segment (start 150.040001 88.445001) (end 150.040001 98.879999) (width 0.4) (layer F.Cu) (net 22))
  (segment (start 149.439999 99.480001) (end 148.59 100.33) (width 0.4) (layer F.Cu) (net 22))
  (segment (start 146.05 88.03) (end 146.465001 88.445001) (width 0.4) (layer F.Cu) (net 22))
  (segment (start 146.465001 88.445001) (end 150.040001 88.445001) (width 0.4) (layer F.Cu) (net 22))
  (segment (start 146.05 86.36) (end 146.05 88.03) (width 0.4) (layer F.Cu) (net 22))
  (segment (start 113.919 132.588) (end 114.681 133.35) (width 0.4) (layer F.Cu) (net 23))
  (segment (start 113.919 128.27) (end 113.919 132.588) (width 0.4) (layer F.Cu) (net 23))
  (segment (start 140.589 127.508) (end 141.351 128.27) (width 0.4) (layer F.Cu) (net 24))
  (segment (start 140.589 125.73) (end 140.589 127.508) (width 0.4) (layer F.Cu) (net 24))
  (segment (start 106.934 84.328) (end 106.934 90.932) (width 0.4) (layer F.Cu) (net 25))
  (segment (start 110.49 93.834) (end 110.49 94.869) (width 0.4) (layer F.Cu) (net 25))
  (segment (start 110.49 93.326) (end 110.49 93.834) (width 0.4) (layer F.Cu) (net 25))
  (segment (start 108.096 90.932) (end 110.49 93.326) (width 0.4) (layer F.Cu) (net 25))
  (segment (start 106.934 90.932) (end 108.096 90.932) (width 0.4) (layer F.Cu) (net 25))
  (segment (start 122.682 88.646) (end 116.078 88.646) (width 0.4) (layer F.Cu) (net 26))
  (segment (start 113.684 100.2475) (end 112.649 101.2825) (width 0.4) (layer F.Cu) (net 26))
  (segment (start 114.0015 100.2475) (end 113.684 100.2475) (width 0.4) (layer F.Cu) (net 26))
  (segment (start 112.649 101.2825) (end 112.649 101.6) (width 0.4) (layer F.Cu) (net 26))
  (segment (start 116.078 88.646) (end 116.078 89.808) (width 0.4) (layer F.Cu) (net 26))
  (segment (start 118.98 109.22) (end 119.18 109.02) (width 0.4) (layer F.Cu) (net 26))
  (segment (start 117.868616 109.22) (end 118.98 109.22) (width 0.4) (layer F.Cu) (net 26))
  (segment (start 112.649 104.000384) (end 117.868616 109.22) (width 0.4) (layer F.Cu) (net 26))
  (segment (start 112.649 101.6) (end 112.649 104.000384) (width 0.4) (layer F.Cu) (net 26))
  (segment (start 116.078 98.171) (end 116.078 88.646) (width 0.4) (layer F.Cu) (net 26))
  (segment (start 114.0015 100.2475) (end 116.078 98.171) (width 0.4) (layer F.Cu) (net 26))
  (segment (start 138.83 122.99) (end 137.18 122.99) (width 0.4) (layer F.Cu) (net 27))
  (segment (start 145.006001 122.907499) (end 138.912501 122.907499) (width 0.4) (layer F.Cu) (net 27))
  (segment (start 138.912501 122.907499) (end 138.83 122.99) (width 0.4) (layer F.Cu) (net 27))
  (segment (start 147.32 125.221498) (end 145.006001 122.907499) (width 0.4) (layer F.Cu) (net 27))
  (segment (start 147.32 131.0513) (end 147.32 125.221498) (width 0.4) (layer F.Cu) (net 27))
  (segment (start 119.18 110.29) (end 117.53 110.29) (width 0.4) (layer F.Cu) (net 28))
  (segment (start 115.37 110.29) (end 106.68 101.6) (width 0.4) (layer F.Cu) (net 28))
  (segment (start 119.18 110.29) (end 115.37 110.29) (width 0.4) (layer F.Cu) (net 28))
  (segment (start 117.668616 111.56) (end 119.18 111.56) (width 0.4) (layer F.Cu) (net 29))
  (segment (start 118.98 111.76) (end 119.18 111.56) (width 0.4) (layer F.Cu) (net 29))
  (segment (start 117.868616 111.76) (end 118.98 111.76) (width 0.4) (layer F.Cu) (net 29))
  (segment (start 114.1 111.56) (end 106.68 104.14) (width 0.4) (layer F.Cu) (net 29))
  (segment (start 119.18 111.56) (end 114.1 111.56) (width 0.4) (layer F.Cu) (net 29))
  (segment (start 117.91 115.37) (end 119.18 115.37) (width 0.4) (layer F.Cu) (net 30))
  (segment (start 110.29 115.37) (end 106.68 111.76) (width 0.4) (layer F.Cu) (net 30))
  (segment (start 119.18 115.37) (end 110.29 115.37) (width 0.4) (layer F.Cu) (net 30))
  (segment (start 109.02 116.64) (end 106.68 114.3) (width 0.4) (layer F.Cu) (net 31))
  (segment (start 119.18 116.64) (end 109.02 116.64) (width 0.4) (layer F.Cu) (net 31))
  (segment (start 107.75 117.91) (end 106.68 116.84) (width 0.4) (layer F.Cu) (net 32))
  (segment (start 119.18 117.91) (end 107.75 117.91) (width 0.4) (layer F.Cu) (net 32))
  (segment (start 106.88 119.18) (end 106.68 119.38) (width 0.4) (layer F.Cu) (net 33))
  (segment (start 119.18 119.18) (end 106.88 119.18) (width 0.4) (layer F.Cu) (net 33))
  (segment (start 147.52 121.72) (end 148.59 120.65) (width 0.4) (layer F.Cu) (net 34))
  (segment (start 137.18 121.72) (end 147.52 121.72) (width 0.4) (layer F.Cu) (net 34))
  (segment (start 146.25 120.45) (end 138.63 120.45) (width 0.4) (layer F.Cu) (net 35))
  (segment (start 148.59 118.11) (end 146.25 120.45) (width 0.4) (layer F.Cu) (net 35))
  (segment (start 138.63 120.45) (end 137.18 120.45) (width 0.4) (layer F.Cu) (net 35))
  (segment (start 144.98 119.18) (end 148.59 115.57) (width 0.4) (layer F.Cu) (net 36))
  (segment (start 137.18 119.18) (end 144.98 119.18) (width 0.4) (layer F.Cu) (net 36))
  (segment (start 138.83 117.91) (end 137.18 117.91) (width 0.4) (layer F.Cu) (net 37))
  (segment (start 143.71 117.91) (end 138.83 117.91) (width 0.4) (layer F.Cu) (net 37))
  (segment (start 148.59 113.03) (end 143.71 117.91) (width 0.4) (layer F.Cu) (net 37))
  (segment (start 142.44 116.64) (end 148.59 110.49) (width 0.4) (layer F.Cu) (net 38))
  (segment (start 137.18 116.64) (end 142.44 116.64) (width 0.4) (layer F.Cu) (net 38))
  (segment (start 141.17 115.37) (end 137.18 115.37) (width 0.4) (layer F.Cu) (net 39))
  (segment (start 148.59 107.95) (end 141.17 115.37) (width 0.4) (layer F.Cu) (net 39))
  (segment (start 138.83 112.83) (end 137.18 112.83) (width 0.4) (layer F.Cu) (net 40))
  (segment (start 141.17 112.83) (end 137.36 112.83) (width 0.4) (layer F.Cu) (net 40))
  (segment (start 148.59 105.41) (end 141.17 112.83) (width 0.4) (layer F.Cu) (net 40))
  (segment (start 137.36 112.83) (end 137.18 112.83) (width 0.4) (layer F.Cu) (net 40))
  (segment (start 138.83 109.02) (end 137.18 109.02) (width 0.4) (layer F.Cu) (net 41))
  (segment (start 147.139999 100.710001) (end 138.83 109.02) (width 0.4) (layer F.Cu) (net 41))
  (segment (start 147.139999 99.240001) (end 147.139999 100.710001) (width 0.4) (layer F.Cu) (net 41))
  (segment (start 148.59 97.79) (end 147.139999 99.240001) (width 0.4) (layer F.Cu) (net 41))
  (segment (start 137.36 107.75) (end 137.18 107.75) (width 0.4) (layer F.Cu) (net 42))
  (segment (start 148.59 95.25) (end 140.97 102.87) (width 0.4) (layer F.Cu) (net 42))
  (segment (start 140.97 105.73) (end 140.97 104.14) (width 0.4) (layer F.Cu) (net 42))
  (segment (start 138.92 107.78) (end 140.97 105.73) (width 0.4) (layer F.Cu) (net 42))
  (segment (start 140.97 104.14) (end 140.97 105.41) (width 0.4) (layer F.Cu) (net 42))
  (segment (start 137.27 107.78) (end 138.92 107.78) (width 0.4) (layer F.Cu) (net 42))
  (segment (start 140.97 102.87) (end 140.97 104.14) (width 0.4) (layer F.Cu) (net 42))

)
